Project 2/CA2021_project2/codes/CPU.vcd
$date
	Sat Jun 26 23:56:02 2021
$end
$version
	Icarus Verilog
$end
$timescale
	1s
$end
$scope module testbench $end
$var wire 256 ! mem_cpu_data [255:0] $end
$var wire 1 " mem_cpu_ack $end
$var wire 1 # cpu_mem_write $end
$var wire 1 $ cpu_mem_enable $end
$var wire 256 % cpu_mem_data [255:0] $end
$var wire 32 & cpu_mem_addr [31:0] $end
$var reg 1 ' Clk $end
$var reg 1 ( Reset $end
$var reg 1 ) Start $end
$var reg 27 * address [26:0] $end
$var reg 1 + flag $end
$var reg 4 , index [3:0] $end
$var reg 24 - tag [23:0] $end
$var integer 32 . counter [31:0] $end
$var integer 32 / i [31:0] $end
$var integer 32 0 j [31:0] $end
$var integer 32 1 outfile [31:0] $end
$var integer 32 2 outfile2 [31:0] $end
$scope module CPU $end
$var wire 32 3 MemRead_Res [31:0] $end
$var wire 1 ' clk_i $end
$var wire 1 ( rst_i $end
$var wire 1 ) start_i $end
$var wire 1 # mem_write_o $end
$var wire 1 $ mem_enable_o $end
$var wire 256 4 mem_data_o [255:0] $end
$var wire 256 5 mem_data_i [255:0] $end
$var wire 32 6 mem_addr_o [31:0] $end
$var wire 1 " mem_ack_i $end
$var wire 32 7 instr [31:0] $end
$var wire 1 8 Stall $end
$var wire 32 9 SignExtend_Res [31:0] $end
$var wire 32 : ShiftLeft_Res [31:0] $end
$var wire 32 ; RS2Data [31:0] $end
$var wire 32 < RS1Data [31:0] $end
$var wire 32 = PC_now [31:0] $end
$var wire 32 > PC_four [31:0] $end
$var wire 32 ? PC_branch [31:0] $end
$var wire 1 @ PCWrite $end
$var wire 1 A NoOp $end
$var wire 32 B MUX_PC_Res [31:0] $end
$var wire 32 C MUX_MemtoReg_Res [31:0] $end
$var wire 32 D MUX_ALUSrc_Res [31:0] $end
$var wire 1 E MEMWB_RegWrite $end
$var wire 5 F MEMWB_RDaddr [4:0] $end
$var wire 1 G MEMWB_MemtoReg $end
$var wire 32 H MEMWB_MemRead_Data [31:0] $end
$var wire 32 I MEMWB_ALU_Res [31:0] $end
$var wire 32 J IFID_instr [31:0] $end
$var wire 32 K IFID_PC [31:0] $end
$var wire 10 L IDEX_funct [9:0] $end
$var wire 32 M IDEX_SignExtend_Res [31:0] $end
$var wire 1 N IDEX_RegWrite $end
$var wire 32 O IDEX_RS2Data [31:0] $end
$var wire 5 P IDEX_RS2Addr [4:0] $end
$var wire 32 Q IDEX_RS1Data [31:0] $end
$var wire 5 R IDEX_RS1Addr [4:0] $end
$var wire 5 S IDEX_RDaddr [4:0] $end
$var wire 1 T IDEX_MemtoReg $end
$var wire 1 U IDEX_MemWrite $end
$var wire 1 V IDEX_MemRead $end
$var wire 1 W IDEX_ALUSrc $end
$var wire 2 X IDEX_ALUOp [1:0] $end
$var wire 2 Y Forward_B [1:0] $end
$var wire 2 Z Forward_A [1:0] $end
$var wire 32 [ ForwardB_MUX_Res [31:0] $end
$var wire 32 \ ForwardA_MUX_Res [31:0] $end
$var wire 1 ] Flush $end
$var wire 1 ^ Equal_Res $end
$var wire 1 _ EXMEM_RegWrite $end
$var wire 5 ` EXMEM_RDaddr [4:0] $end
$var wire 1 a EXMEM_MemtoReg $end
$var wire 32 b EXMEM_MemWrite_Data [31:0] $end
$var wire 1 c EXMEM_MemWrite $end
$var wire 1 d EXMEM_MemRead $end
$var wire 32 e EXMEM_ALU_Res [31:0] $end
$var wire 1 f Ctrl_RegWrite $end
$var wire 1 g Ctrl_MemtoReg $end
$var wire 1 h Ctrl_MemWrite $end
$var wire 1 i Ctrl_MemRead $end
$var wire 1 j Ctrl_Branch $end
$var wire 1 k Ctrl_ALUSrc $end
$var wire 2 l Ctrl_ALUOp [1:0] $end
$var wire 1 m CacheCtrl_Stall $end
$var wire 32 n CacheCtrl_MEMWB_Data [31:0] $end
$var wire 32 o ALU_Res [31:0] $end
$var wire 4 p ALUCtrl [3:0] $end
$scope module ALU $end
$var wire 32 q data2_i [31:0] $end
$var wire 32 r data1_i [31:0] $end
$var wire 4 s ALUCtrl_i [3:0] $end
$var reg 32 t data_o [31:0] $end
$upscope $end
$scope module ALU_Control $end
$var wire 10 u funct_i [9:0] $end
$var wire 2 v ALUOp_i [1:0] $end
$var reg 4 w ALUCtrl_o [3:0] $end
$upscope $end
$scope module Add_Branch $end
$var wire 32 x data_o [31:0] $end
$var wire 32 y data2_in [31:0] $end
$var wire 32 z data1_in [31:0] $end
$upscope $end
$scope module Add_PC $end
$var wire 32 { data2_in [31:0] $end
$var wire 32 | data_o [31:0] $end
$var wire 32 } data1_in [31:0] $end
$upscope $end
$scope module And $end
$var wire 1 ] data_o $end
$var wire 1 ^ data2_in $end
$var wire 1 j data1_in $end
$upscope $end
$scope module Control $end
$var wire 7 ~ Op_i [6:0] $end
$var wire 1 A NoOp_i $end
$var reg 2 !" ALUOp_o [1:0] $end
$var reg 1 k ALUSrc_o $end
$var reg 1 j Branch_o $end
$var reg 1 i MemRead_o $end
$var reg 1 h MemWrite_o $end
$var reg 1 g MemtoReg_o $end
$var reg 1 f RegWrite_o $end
$upscope $end
$scope module Equal $end
$var wire 1 ^ data_o $end
$var wire 32 "" data2_in [31:0] $end
$var wire 32 #" data1_in [31:0] $end
$upscope $end
$scope module ForwardA_MUX $end
$var wire 32 $" MUX_Res_o [31:0] $end
$var wire 32 %" WB_WriteData_in [31:0] $end
$var wire 32 &" MEM_ALU_Res_in [31:0] $end
$var wire 2 '" Forward_in [1:0] $end
$var wire 32 (" EXRS_Data_in [31:0] $end
$var reg 32 )" MUX_Res [31:0] $end
$upscope $end
$scope module ForwardB_MUX $end
$var wire 32 *" MUX_Res_o [31:0] $end
$var wire 32 +" WB_WriteData_in [31:0] $end
$var wire 32 ," MEM_ALU_Res_in [31:0] $end
$var wire 2 -" Forward_in [1:0] $end
$var wire 32 ." EXRS_Data_in [31:0] $end
$var reg 32 /" MUX_Res [31:0] $end
$upscope $end
$scope module Forwarding_Unit $end
$var wire 2 0" Forward_A_o [1:0] $end
$var wire 2 1" Forward_B_o [1:0] $end
$var wire 1 E WB_RegWrite_i $end
$var wire 5 2" WB_Rd_i [4:0] $end
$var wire 1 _ MEM_RegWrite_i $end
$var wire 5 3" MEM_Rd_i [4:0] $end
$var wire 5 4" EX_RS2_i [4:0] $end
$var wire 5 5" EX_RS1_i [4:0] $end
$var reg 2 6" Forward_A_res [1:0] $end
$var reg 2 7" Forward_B_res [1:0] $end
$var reg 1 8" flag_A $end
$var reg 1 9" flag_B $end
$upscope $end
$scope module Hazard_Detection $end
$var wire 5 :" RS1addr_i [4:0] $end
$var wire 5 ;" RS2addr_i [4:0] $end
$var wire 5 <" RDaddr_i [4:0] $end
$var wire 1 V MemRead_i $end
$var reg 1 A NoOp_o $end
$var reg 1 @ PCWrite_o $end
$var reg 1 8 Stall_o $end
$upscope $end
$scope module Instruction_Memory $end
$var wire 32 =" instr_o [31:0] $end
$var wire 32 >" addr_i [31:0] $end
$upscope $end
$scope module MUX_ALUSrc $end
$var wire 32 ?" data1_i [31:0] $end
$var wire 1 W select_i $end
$var wire 32 @" data_o [31:0] $end
$var wire 32 A" data2_i [31:0] $end
$upscope $end
$scope module MUX_MemtoReg $end
$var wire 1 G select_i $end
$var wire 32 B" data_o [31:0] $end
$var wire 32 C" data2_i [31:0] $end
$var wire 32 D" data1_i [31:0] $end
$upscope $end
$scope module MUX_PC $end
$var wire 32 E" data1_i [31:0] $end
$var wire 32 F" data2_i [31:0] $end
$var wire 1 ] select_i $end
$var wire 32 G" data_o [31:0] $end
$upscope $end
$scope module PC $end
$var wire 1 @ PCWrite_i $end
$var wire 1 ' clk_i $end
$var wire 32 H" pc_i [31:0] $end
$var wire 1 ( rst_i $end
$var wire 1 ) start_i $end
$var wire 1 m stall_i $end
$var reg 32 I" pc_o [31:0] $end
$upscope $end
$scope module Register_EXMEM $end
$var wire 32 J" ALU_Res_i [31:0] $end
$var wire 32 K" MemWrite_Data_i [31:0] $end
$var wire 1 ' clk_i $end
$var wire 1 ) start_i $end
$var wire 1 m stall_i $end
$var wire 1 N RegWrite_i $end
$var wire 5 L" RDaddr_i [4:0] $end
$var wire 1 T MemtoReg_i $end
$var wire 1 U MemWrite_i $end
$var wire 1 V MemRead_i $end
$var reg 32 M" ALU_Res_o [31:0] $end
$var reg 1 d MemRead_o $end
$var reg 32 N" MemWrite_Data_o [31:0] $end
$var reg 1 c MemWrite_o $end
$var reg 1 a MemtoReg_o $end
$var reg 5 O" RDaddr_o [4:0] $end
$var reg 1 _ RegWrite_o $end
$upscope $end
$scope module Register_IDEX $end
$var wire 2 P" ALUOp_i [1:0] $end
$var wire 1 k ALUSrc_i $end
$var wire 1 i MemRead_i $end
$var wire 1 h MemWrite_i $end
$var wire 1 g MemtoReg_i $end
$var wire 5 Q" RDaddr_i [4:0] $end
$var wire 5 R" RS1Addr_i [4:0] $end
$var wire 5 S" RS2Addr_i [4:0] $end
$var wire 1 f RegWrite_i $end
$var wire 1 ' clk_i $end
$var wire 10 T" funct_i [9:0] $end
$var wire 1 ) start_i $end
$var wire 1 m stall_i $end
$var wire 32 U" SignExtend_Res_i [31:0] $end
$var wire 32 V" RS2Data_i [31:0] $end
$var wire 32 W" RS1Data_i [31:0] $end
$var reg 2 X" ALUOp_o [1:0] $end
$var reg 1 W ALUSrc_o $end
$var reg 1 V MemRead_o $end
$var reg 1 U MemWrite_o $end
$var reg 1 T MemtoReg_o $end
$var reg 5 Y" RDaddr_o [4:0] $end
$var reg 5 Z" RS1Addr_o [4:0] $end
$var reg 32 [" RS1Data_o [31:0] $end
$var reg 5 \" RS2Addr_o [4:0] $end
$var reg 32 ]" RS2Data_o [31:0] $end
$var reg 1 N RegWrite_o $end
$var reg 32 ^" SignExtend_Res_o [31:0] $end
$var reg 10 _" funct_o [9:0] $end
$upscope $end
$scope module Register_IFID $end
$var wire 1 ] Flush_i $end
$var wire 1 8 Stall_i $end
$var wire 1 ' clk_i $end
$var wire 32 `" instr_i [31:0] $end
$var wire 32 a" pc_i [31:0] $end
$var wire 1 ) start_i $end
$var wire 1 m stall_i $end
$var reg 32 b" instr_o [31:0] $end
$var reg 32 c" pc_o [31:0] $end
$upscope $end
$scope module Register_MEMWB $end
$var wire 32 d" MemAddr_i [31:0] $end
$var wire 32 e" MemRead_Data_i [31:0] $end
$var wire 1 a MemtoReg_i $end
$var wire 5 f" RDaddr_i [4:0] $end
$var wire 1 _ RegWrite_i $end
$var wire 1 ' clk_i $end
$var wire 1 ) start_i $end
$var wire 1 m stall_i $end
$var reg 32 g" MemAddr_o [31:0] $end
$var reg 32 h" MemRead_Data_o [31:0] $end
$var reg 1 G MemtoReg_o $end
$var reg 5 i" RDaddr_o [4:0] $end
$var reg 1 E RegWrite_o $end
$upscope $end
$scope module Registers $end
$var wire 5 j" RDaddr_i [4:0] $end
$var wire 32 k" RDdata_i [31:0] $end
$var wire 5 l" RS1addr_i [4:0] $end
$var wire 5 m" RS2addr_i [4:0] $end
$var wire 1 E RegWrite_i $end
$var wire 1 ' clk_i $end
$var wire 32 n" RS2data_o [31:0] $end
$var wire 32 o" RS1data_o [31:0] $end
$upscope $end
$scope module ShiftLeft $end
$var wire 32 p" data_o [31:0] $end
$var wire 32 q" data_i [31:0] $end
$upscope $end
$scope module Sign_Extend $end
$var wire 32 r" data_i [31:0] $end
$var reg 32 s" data_o [31:0] $end
$upscope $end
$scope module dcache $end
$var wire 1 t" cache_dirty $end
$var wire 1 u" cache_sram_enable $end
$var wire 4 v" cache_sram_index [3:0] $end
$var wire 1 w" cache_sram_write $end
$var wire 1 ' clk_i $end
$var wire 1 d cpu_MemRead_i $end
$var wire 1 c cpu_MemWrite_i $end
$var wire 32 x" cpu_addr_i [31:0] $end
$var wire 32 y" cpu_data_i [31:0] $end
$var wire 32 z" cpu_data_o [31:0] $end
$var wire 1 {" cpu_req $end
$var wire 1 m cpu_stall_o $end
$var wire 256 |" mem_data_o [255:0] $end
$var wire 1 $ mem_enable_o $end
$var wire 1 # mem_write_o $end
$var wire 1 ( rst_i $end
$var wire 1 }" write_hit $end
$var wire 1 ~" sram_valid $end
$var wire 22 !# sram_tag [21:0] $end
$var wire 1 "# sram_dirty $end
$var wire 25 ## sram_cache_tag [24:0] $end
$var wire 256 $# sram_cache_data [255:0] $end
$var wire 256 %# r_hit_data [255:0] $end
$var wire 256 &# mem_data_i [255:0] $end
$var wire 32 '# mem_addr_o [31:0] $end
$var wire 1 " mem_ack_i $end
$var wire 1 (# hit $end
$var wire 23 )# cpu_tag [22:0] $end
$var wire 5 *# cpu_offset [4:0] $end
$var wire 4 +# cpu_index [3:0] $end
$var wire 25 ,# cache_sram_tag [24:0] $end
$var wire 256 -# cache_sram_data [255:0] $end
$var reg 1 .# cache_write $end
$var reg 32 /# cpu_data [31:0] $end
$var reg 1 0# mem_enable $end
$var reg 1 1# mem_write $end
$var reg 3 2# state [2:0] $end
$var reg 256 3# w_hit_data [255:0] $end
$var reg 1 4# write_back $end
$scope module dcache_sram $end
$var wire 4 5# addr_i [3:0] $end
$var wire 1 ' clk_i $end
$var wire 256 6# data_i [255:0] $end
$var wire 1 u" enable_i $end
$var wire 1 (# hit_o $end
$var wire 1 7# res_1 $end
$var wire 1 8# res_2 $end
$var wire 1 ( rst_i $end
$var wire 25 9# tag_i [24:0] $end
$var wire 1 w" write_i $end
$var wire 25 :# tag_o [24:0] $end
$var wire 1 ;# equal_2 $end
$var wire 1 <# equal_1 $end
$var wire 256 =# data_o [255:0] $end
$var reg 16 ># LRU [15:0] $end
$var integer 32 ?# i [31:0] $end
$var integer 32 @# j [31:0] $end
$upscope $end
$upscope $end
$upscope $end
$scope module Data_Memory $end
$var wire 1 " ack_o $end
$var wire 32 A# addr_i [31:0] $end
$var wire 1 ' clk_i $end
$var wire 256 B# data_i [255:0] $end
$var wire 256 C# data_o [255:0] $end
$var wire 1 $ enable_i $end
$var wire 1 ( rst_i $end
$var wire 1 # write_i $end
$var wire 27 D# addr [26:0] $end
$var reg 4 E# count [3:0] $end
$var reg 256 F# data [255:0] $end
$var reg 2 G# state [1:0] $end
$upscope $end
$upscope $end
$enddefinitions $end
#0
$dumpvars
b0 G#
bx F#
b0 E#
bx D#
bx C#
bx B#
bx00000 A#
b10 @#
b10000 ?#
b0 >#
bx =#
x<#
x;#
bx :#
b1xxxxxxxxxxxxxxxxxxxxxxxx 9#
x8#
x7#
bx 6#
bx 5#
04#
bx 3#
b0 2#
01#
00#
bx /#
0.#
bx -#
b1xxxxxxxxxxxxxxxxxxxxxxxx ,#
bx +#
bx *#
bx )#
x(#
bx00000 '#
bx &#
bx %#
bx $#
bx ##
x"#
bx !#
x~"
x}"
bx |"
x{"
bx z"
bx y"
bx x"
xw"
bx v"
xu"
xt"
bx s"
bx r"
bx q"
bx0 p"
bx o"
bx n"
bx m"
bx l"
bx k"
bx j"
bx i"
bx h"
bx g"
bx f"
bz e"
bx d"
bx c"
bx b"
b0 a"
bx `"
bx _"
bx ^"
bx ]"
bx \"
bx ["
bx Z"
bx Y"
bx X"
bx W"
bx V"
bx U"
bx T"
bx S"
bx R"
bx Q"
bx P"
bx O"
bx N"
bx M"
bx L"
bx K"
bx J"
b0 I"
bx H"
bx G"
bx F"
b100 E"
bx D"
bx C"
bx B"
bx A"
bx @"
bx ?"
b0 >"
bx ="
bx <"
bx ;"
bx :"
x9"
x8"
bx 7"
bx 6"
bx 5"
bx 4"
bx 3"
bx 2"
bx 1"
bx 0"
bx /"
bx ."
bx -"
bx ,"
bx +"
bx *"
bx )"
bx ("
bx '"
bx &"
bx %"
bx $"
bx #"
bx ""
bx !"
bx ~
b0 }
b100 |
b100 {
bx0 z
bx y
bx x
bx w
bx v
bx u
bx t
bx s
bx r
bx q
bx p
bx o
bx n
xm
bx l
xk
xj
xi
xh
xg
xf
bx e
xd
xc
bx b
xa
bx `
x_
x^
x]
bx \
bx [
bx Z
bx Y
bx X
xW
xV
xU
xT
bx S
bx R
bx Q
bx P
bx O
xN
bx M
bx L
bx K
bx J
bx I
bx H
xG
bx F
xE
bx D
bx C
bx B
xA
x@
bx ?
b100 >
b0 =
bx <
bx ;
bx0 :
bx 9
x8
bx 7
bx00000 6
bx 5
bx 4
bz 3
bx 2
bx 1
bx 0
bx /
b0 .
bx -
bx ,
x+
bx *
0)
1(
0'
bx00000 &
bx %
0$
0#
0"
bx !
$end
#12
b101 2
b11 1
b10 0
b10011110000011 7
b10011110000011 ="
b10011110000011 `"
b1000000000 /
1)
0(
#25
0A
08
1@
1^
b100 B
b100 G"
b100 H"
0]
b0 ;
b0 ""
b0 V"
b0 n"
b0 <
b0 #"
b0 W"
b0 o"
b0 ?
b0 x
b0 F"
b0 :
b0 z
b0 p"
0j
1k
b0 l
b0 !"
b0 P"
0h
1i
1g
1f
b0 9
b0 U"
b0 q"
b0 s"
b0 ;"
b0 :"
b0 S"
b0 R"
b1111 Q"
b10 T"
b11 ~
b0 m"
b0 l"
b0 K
b0 y
b0 c"
b10011110000011 J
b10011110000011 b"
b10011110000011 r"
b1 .
1'
#50
0'
#75
b0 o
b0 t
b0 J"
b1000 p
b1000 s
b1000 w
09"
08"
b0 Y
b0 -"
b0 1"
b0 7"
b0 Z
b0 '"
b0 0"
b0 6"
b0 D
b0 q
b0 @"
b0 [
b0 *"
b0 /"
b0 ?"
b0 K"
b0 \
b0 r
b0 $"
b0 )"
1W
b0 X
b0 v
b0 X"
0U
1V
1T
1N
b0 P
b0 4"
b0 \"
b0 R
b0 5"
b0 Z"
b1111 S
b1111 <"
b1111 L"
b1111 Y"
b10 L
b10 u
b10 _"
b0 M
b0 A"
b0 ^"
b0 O
b0 ."
b0 ]"
b0 Q
b0 ("
b0 ["
b10 .
1'
#100
0'
#125
bx00000000000000000000000000000000 3#
1m
b0 !#
b0 D#
0(#
0"#
0~"
1<#
1;#
07#
08#
b0 %
b0 4
b0 |"
b0 B#
b0 $#
b0 =#
b0 ##
b0 :#
0w"
b0 &
b0 6
b0 '#
b0 A#
0t"
0}"
1u"
1{"
b1000000000000000000000000 ,#
b1000000000000000000000000 9#
b0 )#
b0 v"
b0 5#
b0 +#
b0 *#
0c
1d
1a
1_
b1111 `
b1111 3"
b1111 O"
b1111 f"
b0 b
b0 N"
b0 y"
b0 e
b0 &"
b0 ,"
b0 M"
b0 d"
b0 x"
b11 .
1'
#150
0'
#175
bz C
bz %"
bz +"
bz B"
bz k"
b100 2#
1G
1E
b1111 F
b1111 2"
b1111 i"
b1111 j"
bz H
bz C"
bz h"
b0 I
b0 D"
b0 g"
b100 .
1+
1'
#200
0'
#225
1$
10#
b1 2#
b101 .
1'
#250
0'
#275
b1 E#
b1 G#
b110 .
1'
#300
0'
#325
b10 E#
b111 .
1'
#350
0'
#375
b11 E#
b1000 .
1'
#400
0'
#425
b100 E#
b1001 .
1'
#450
0'
#475
b101 E#
b1010 .
1'
#500
0'
#525
b110 E#
b1011 .
1'
#550
0'
#575
b111 E#
b1100 .
1'
#600
0'
#625
b1000 E#
b1101 .
1'
#650
0'
#675
1"
b1001 E#
b1110 .
1'
#700
0'
#725
0"
1w"
b100010001000100100010001000100011001100110011010001000100010001010101010101010110011001100110011101110111011110001000100010001001100110011001101010101010101010111011101110111100110011001100110111011101110100000000000000000000000000000000 3#
b11101110111011101111111111111111 n
b11101110111011101111111111111111 z"
b11101110111011101111111111111111 /#
b0 E#
b0 G#
1.#
0$
00#
b10 2#
b100010001000100100010001000100011001100110011010001000100010001010101010101010110011001100110011101110111011110001000100010001001100110011001101010101010101010111011101110111100110011001100110111011101110111101110111011101111111111111111 %#
b100010001000100100010001000100011001100110011010001000100010001010101010101010110011001100110011101110111011110001000100010001001100110011001101010101010101010111011101110111100110011001100110111011101110111101110111011101111111111111111 -#
b100010001000100100010001000100011001100110011010001000100010001010101010101010110011001100110011101110111011110001000100010001001100110011001101010101010101010111011101110111100110011001100110111011101110111101110111011101111111111111111 6#
b100010001000100100010001000100011001100110011010001000100010001010101010101010110011001100110011101110111011110001000100010001001100110011001101010101010101010111011101110111100110011001100110111011101110111101110111011101111111111111111 !
b100010001000100100010001000100011001100110011010001000100010001010101010101010110011001100110011101110111011110001000100010001001100110011001101010101010101010111011101110111100110011001100110111011101110111101110111011101111111111111111 5
b100010001000100100010001000100011001100110011010001000100010001010101010101010110011001100110011101110111011110001000100010001001100110011001101010101010101010111011101110111100110011001100110111011101110111101110111011101111111111111111 &#
b100010001000100100010001000100011001100110011010001000100010001010101010101010110011001100110011101110111011110001000100010001001100110011001101010101010101010111011101110111100110011001100110111011101110111101110111011101111111111111111 C#
b100010001000100100010001000100011001100110011010001000100010001010101010101010110011001100110011101110111011110001000100010001001100110011001101010101010101010111011101110111100110011001100110111011101110111101110111011101111111111111111 F#
b1111 .
1'
#750
0'
#775
b100010001000100100010001000100011001100110011010001000100010001010101010101010110011001100110011101110111011110001000100010001001100110011001101010101010101010111011101110111100110011001100110111011101110100000000000000000000000000000000 3#
b11101110111011101111111111111111 n
b11101110111011101111111111111111 z"
b11101110111011101111111111111111 /#
1"#
1~"
0m
b100010001000100100010001000100011001100110011010001000100010001010101010101010110011001100110011101110111011110001000100010001001100110011001101010101010101010111011101110111100110011001100110111011101110111101110111011101111111111111111 %
b100010001000100100010001000100011001100110011010001000100010001010101010101010110011001100110011101110111011110001000100010001001100110011001101010101010101010111011101110111100110011001100110111011101110111101110111011101111111111111111 4
b100010001000100100010001000100011001100110011010001000100010001010101010101010110011001100110011101110111011110001000100010001001100110011001101010101010101010111011101110111100110011001100110111011101110111101110111011101111111111111111 |"
b100010001000100100010001000100011001100110011010001000100010001010101010101010110011001100110011101110111011110001000100010001001100110011001101010101010101010111011101110111100110011001100110111011101110111101110111011101111111111111111 B#
b100010001000100100010001000100011001100110011010001000100010001010101010101010110011001100110011101110111011110001000100010001001100110011001101010101010101010111011101110111100110011001100110111011101110111101110111011101111111111111111 $#
b100010001000100100010001000100011001100110011010001000100010001010101010101010110011001100110011101110111011110001000100010001001100110011001101010101010101010111011101110111100110011001100110111011101110111101110111011101111111111111111 =#
b1100000000000000000000000 ##
b1100000000000000000000000 :#
b100010001000100100010001000100011001100110011010001000100010001010101010101010110011001100110011101110111011110001000100010001001100110011001101010101010101010111011101110111100110011001100110111011101110111101110111011101111111111111111 %#
b100010001000100100010001000100011001100110011010001000100010001010101010101010110011001100110011101110111011110001000100010001001100110011001101010101010101010111011101110111100110011001100110111011101110100000000000000000000000000000000 -#
b100010001000100100010001000100011001100110011010001000100010001010101010101010110011001100110011101110111011110001000100010001001100110011001101010101010101010111011101110111100110011001100110111011101110100000000000000000000000000000000 6#
1(#
17#
0w"
b1 >#
0.#
b0 2#
b10000 .
1'
#800
0'
#825
b10000000010011100000011 7
b10000000010011100000011 ="
b10000000010011100000011 `"
b1000 B
b1000 G"
b1000 H"
b1000 >
b1000 |
b1000 E"
b100 =
b100 }
b100 >"
b100 I"
b100 a"
b10001 .
0+
1'
#850
0'
#875
b1000 :
b1000 z
b1000 p"
b100000000010011010000011 7
b100000000010011010000011 ="
b100000000010011010000011 `"
b1100 B
b1100 G"
b1100 H"
b100 9
b100 U"
b100 q"
b100 s"
b100 ;"
b100 S"
b1110 Q"
b100 m"
b1100 >
b1100 |
b1100 E"
b1000 =
b1000 }
b1000 >"
b1000 I"
b1000 a"
b1100 ?
b1100 x
b1100 F"
b100 K
b100 y
b100 c"
b10000000010011100000011 J
b10000000010011100000011 b"
b10000000010011100000011 r"
b10010 .
1'
#900
0'
#925
b100 o
b100 t
b100 J"
b10000 :
b10000 z
b10000 p"
b110000000010011000000011 7
b110000000010011000000011 ="
b110000000010011000000011 `"
b10000 B
b10000 G"
b10000 H"
b1000 9
b1000 U"
b1000 q"
b1000 s"
b1000 ;"
b1000 S"
b1101 Q"
b1000 m"
b100 D
b100 q
b100 @"
b10000 >
b10000 |
b10000 E"
b1100 =
b1100 }
b1100 >"
b1100 I"
b1100 a"
b11000 ?
b11000 x
b11000 F"
b1000 K
b1000 y
b1000 c"
b100000000010011010000011 J
b100000000010011010000011 b"
b100000000010011010000011 r"
b100 P
b100 4"
b100 \"
b1110 S
b1110 <"
b1110 L"
b1110 Y"
b100 M
b100 A"
b100 ^"
b10011 .
1'
#950
0'
#975
b100010001000100100010001000100011001100110011010001000100010001010101010101010110011001100110011101110111011110001000100010001001100110011001101010101010101010111011101110110000000000000000000000000000000011101110111011101111111111111111 -#
b100010001000100100010001000100011001100110011010001000100010001010101010101010110011001100110011101110111011110001000100010001001100110011001101010101010101010111011101110110000000000000000000000000000000011101110111011101111111111111111 6#
b100010001000100100010001000100011001100110011010001000100010001010101010101010110011001100110011101110111011110001000100010001001100110011001101010101010101010111011101110110000000000000000000000000000000011101110111011101111111111111111 3#
b11001100110011001101110111011101 n
b11001100110011001101110111011101 z"
b11001100110011001101110111011101 /#
b1000 o
b1000 t
b1000 J"
b11000 :
b11000 z
b11000 p"
b1000000000010010110000011 7
b1000000000010010110000011 ="
b1000000000010010110000011 `"
b10100 B
b10100 G"
b10100 H"
b100 *#
b1000 D
b1000 q
b1000 @"
b1100 9
b1100 U"
b1100 q"
b1100 s"
b1100 ;"
b1100 S"
b1100 Q"
b1100 m"
b10100 >
b10100 |
b10100 E"
b10000 =
b10000 }
b10000 >"
b10000 I"
b10000 a"
b1110 `
b1110 3"
b1110 O"
b1110 f"
b100 e
b100 &"
b100 ,"
b100 M"
b100 d"
b100 x"
b1000 P
b1000 4"
b1000 \"
b1101 S
b1101 <"
b1101 L"
b1101 Y"
b1000 M
b1000 A"
b1000 ^"
b100100 ?
b100100 x
b100100 F"
b1100 K
b1100 y
b1100 c"
b110000000010011000000011 J
b110000000010011000000011 b"
b110000000010011000000011 r"
b10100 .
1'
#1000
0'
#1025
b100010001000100100010001000100011001100110011010001000100010001010101010101010110011001100110011101110111011110001000100010001001100110011001000000000000000000000000000000001100110011001100110111011101110111101110111011101111111111111111 -#
b100010001000100100010001000100011001100110011010001000100010001010101010101010110011001100110011101110111011110001000100010001001100110011001000000000000000000000000000000001100110011001100110111011101110111101110111011101111111111111111 6#
b1100 o
b1100 t
b1100 J"
b100010001000100100010001000100011001100110011010001000100010001010101010101010110011001100110011101110111011110001000100010001001100110011001000000000000000000000000000000001100110011001100110111011101110111101110111011101111111111111111 3#
b10101010101010101011101110111011 n
b10101010101010101011101110111011 z"
b10101010101010101011101110111011 /#
0A
08
1@
b100000 :
b100000 z
b100000 p"
b1010000000010010100000011 7
b1010000000010010100000011 ="
b1010000000010010100000011 `"
b11000 B
b11000 G"
b11000 H"
b10000 9
b10000 U"
b10000 q"
b10000 s"
b10000 ;"
b10000 S"
b1011 Q"
b10000 m"
b1100 D
b1100 q
b1100 @"
b1000 *#
b11000 >
b11000 |
b11000 E"
b10100 =
b10100 }
b10100 >"
b10100 I"
b10100 a"
b110000 ?
b110000 x
b110000 F"
b10000 K
b10000 y
b10000 c"
b1000000000010010110000011 J
b1000000000010010110000011 b"
b1000000000010010110000011 r"
b1100 P
b1100 4"
b1100 \"
b1100 S
b1100 <"
b1100 L"
b1100 Y"
b1100 M
b1100 A"
b1100 ^"
b1101 `
b1101 3"
b1101 O"
b1101 f"
b1000 e
b1000 &"
b1000 ,"
b1000 M"
b1000 d"
b1000 x"
b10101 .
1'
#1050
0'
#1075
b100010001000100100010001000100011001100110011010001000100010001010101010101010110011001100110011101110111011100000000000000000000000000000000101010101010101010111011101110111100110011001100110111011101110111101110111011101111111111111111 -#
b100010001000100100010001000100011001100110011010001000100010001010101010101010110011001100110011101110111011100000000000000000000000000000000101010101010101010111011101110111100110011001100110111011101110111101110111011101111111111111111 6#
b100010001000100100010001000100011001100110011010001000100010001010101010101010110011001100110011101110111011100000000000000000000000000000000101010101010101010111011101110111100110011001100110111011101110111101110111011101111111111111111 3#
b10001000100010001001100110011001 n
b10001000100010001001100110011001 z"
b10001000100010001001100110011001 /#
b10000 o
b10000 t
b10000 J"
b101000 :
b101000 z
b101000 p"
b1100000000010010010000011 7
b1100000000010010010000011 ="
b1100000000010010010000011 `"
b11100 B
b11100 G"
b11100 H"
b1100 *#
b10000 D
b10000 q
b10000 @"
b10100 9
b10100 U"
b10100 q"
b10100 s"
b10100 ;"
b10100 S"
b1010 Q"
b10100 m"
b11100 >
b11100 |
b11100 E"
b11000 =
b11000 }
b11000 >"
b11000 I"
b11000 a"
b1100 `
b1100 3"
b1100 O"
b1100 f"
b1100 e
b1100 &"
b1100 ,"
b1100 M"
b1100 d"
b1100 x"
b10000 P
b10000 4"
b10000 \"
b1011 S
b1011 <"
b1011 L"
b1011 Y"
b10000 M
b10000 A"
b10000 ^"
b111100 ?
b111100 x
b111100 F"
b10100 K
b10100 y
b10100 c"
b1010000000010010100000011 J
b1010000000010010100000011 b"
b1010000000010010100000011 r"
b10110 .
1'
#1100
0'
