Project 2/CA2021_project2/codes/CPU.vcd
$date
	Sun Jun 27 20:35:33 2021
$end
$version
	Icarus Verilog
$end
$timescale
	1s
$end
$scope module testbench $end
$var wire 256 ! mem_cpu_data [255:0] $end
$var wire 1 " mem_cpu_ack $end
$var wire 1 # cpu_mem_write $end
$var wire 1 $ cpu_mem_enable $end
$var wire 256 % cpu_mem_data [255:0] $end
$var wire 32 & cpu_mem_addr [31:0] $end
$var reg 1 ' Clk $end
$var reg 1 ( Reset $end
$var reg 1 ) Start $end
$var reg 27 * address [26:0] $end
$var reg 1 + flag $end
$var reg 4 , index [3:0] $end
$var reg 25 - tag [24:0] $end
$var integer 32 . counter [31:0] $end
$var integer 32 / i [31:0] $end
$var integer 32 0 j [31:0] $end
$var integer 32 1 outfile [31:0] $end
$var integer 32 2 outfile2 [31:0] $end
$scope module CPU $end
$var wire 1 ' clk_i $end
$var wire 1 ( rst_i $end
$var wire 1 ) start_i $end
$var wire 1 # mem_write_o $end
$var wire 1 $ mem_enable_o $end
$var wire 256 3 mem_data_o [255:0] $end
$var wire 256 4 mem_data_i [255:0] $end
$var wire 32 5 mem_addr_o [31:0] $end
$var wire 1 " mem_ack_i $end
$var wire 32 6 instr [31:0] $end
$var wire 1 7 Stall $end
$var wire 32 8 SignExtend_Res [31:0] $end
$var wire 32 9 ShiftLeft_Res [31:0] $end
$var wire 32 : RS2Data [31:0] $end
$var wire 32 ; RS1Data [31:0] $end
$var wire 32 < PC_now [31:0] $end
$var wire 32 = PC_four [31:0] $end
$var wire 32 > PC_branch [31:0] $end
$var wire 1 ? PCWrite $end
$var wire 1 @ NoOp $end
$var wire 32 A MUX_PC_Res [31:0] $end
$var wire 32 B MUX_MemtoReg_Res [31:0] $end
$var wire 32 C MUX_ALUSrc_Res [31:0] $end
$var wire 1 D MEMWB_RegWrite $end
$var wire 5 E MEMWB_RDaddr [4:0] $end
$var wire 1 F MEMWB_MemtoReg $end
$var wire 32 G MEMWB_MemRead_Data [31:0] $end
$var wire 32 H MEMWB_ALU_Res [31:0] $end
$var wire 32 I IFID_instr [31:0] $end
$var wire 32 J IFID_PC [31:0] $end
$var wire 10 K IDEX_funct [9:0] $end
$var wire 32 L IDEX_SignExtend_Res [31:0] $end
$var wire 1 M IDEX_RegWrite $end
$var wire 32 N IDEX_RS2Data [31:0] $end
$var wire 5 O IDEX_RS2Addr [4:0] $end
$var wire 32 P IDEX_RS1Data [31:0] $end
$var wire 5 Q IDEX_RS1Addr [4:0] $end
$var wire 5 R IDEX_RDaddr [4:0] $end
$var wire 1 S IDEX_MemtoReg $end
$var wire 1 T IDEX_MemWrite $end
$var wire 1 U IDEX_MemRead $end
$var wire 1 V IDEX_ALUSrc $end
$var wire 2 W IDEX_ALUOp [1:0] $end
$var wire 2 X Forward_B [1:0] $end
$var wire 2 Y Forward_A [1:0] $end
$var wire 32 Z ForwardB_MUX_Res [31:0] $end
$var wire 32 [ ForwardA_MUX_Res [31:0] $end
$var wire 1 \ Flush $end
$var wire 1 ] Equal_Res $end
$var wire 1 ^ EXMEM_RegWrite $end
$var wire 5 _ EXMEM_RDaddr [4:0] $end
$var wire 1 ` EXMEM_MemtoReg $end
$var wire 32 a EXMEM_MemWrite_Data [31:0] $end
$var wire 1 b EXMEM_MemWrite $end
$var wire 1 c EXMEM_MemRead $end
$var wire 32 d EXMEM_ALU_Res [31:0] $end
$var wire 1 e Ctrl_RegWrite $end
$var wire 1 f Ctrl_MemtoReg $end
$var wire 1 g Ctrl_MemWrite $end
$var wire 1 h Ctrl_MemRead $end
$var wire 1 i Ctrl_Branch $end
$var wire 1 j Ctrl_ALUSrc $end
$var wire 2 k Ctrl_ALUOp [1:0] $end
$var wire 1 l CacheCtrl_Stall $end
$var wire 32 m CacheCtrl_MEMWB_Data [31:0] $end
$var wire 32 n ALU_Res [31:0] $end
$var wire 4 o ALUCtrl [3:0] $end
$scope module ALU $end
$var wire 32 p data2_i [31:0] $end
$var wire 32 q data1_i [31:0] $end
$var wire 4 r ALUCtrl_i [3:0] $end
$var reg 32 s data_o [31:0] $end
$upscope $end
$scope module ALU_Control $end
$var wire 10 t funct_i [9:0] $end
$var wire 2 u ALUOp_i [1:0] $end
$var reg 4 v ALUCtrl_o [3:0] $end
$upscope $end
$scope module Add_Branch $end
$var wire 32 w data_o [31:0] $end
$var wire 32 x data2_in [31:0] $end
$var wire 32 y data1_in [31:0] $end
$upscope $end
$scope module Add_PC $end
$var wire 32 z data2_in [31:0] $end
$var wire 32 { data_o [31:0] $end
$var wire 32 | data1_in [31:0] $end
$upscope $end
$scope module And $end
$var wire 1 \ data_o $end
$var wire 1 ] data2_in $end
$var wire 1 i data1_in $end
$upscope $end
$scope module Control $end
$var wire 7 } Op_i [6:0] $end
$var wire 1 @ NoOp_i $end
$var reg 2 ~ ALUOp_o [1:0] $end
$var reg 1 j ALUSrc_o $end
$var reg 1 i Branch_o $end
$var reg 1 h MemRead_o $end
$var reg 1 g MemWrite_o $end
$var reg 1 f MemtoReg_o $end
$var reg 1 e RegWrite_o $end
$upscope $end
$scope module Equal $end
$var wire 1 ] data_o $end
$var wire 32 !" data2_in [31:0] $end
$var wire 32 "" data1_in [31:0] $end
$upscope $end
$scope module ForwardA_MUX $end
$var wire 32 #" MUX_Res_o [31:0] $end
$var wire 32 $" WB_WriteData_in [31:0] $end
$var wire 32 %" MEM_ALU_Res_in [31:0] $end
$var wire 2 &" Forward_in [1:0] $end
$var wire 32 '" EXRS_Data_in [31:0] $end
$var reg 32 (" MUX_Res [31:0] $end
$upscope $end
$scope module ForwardB_MUX $end
$var wire 32 )" MUX_Res_o [31:0] $end
$var wire 32 *" WB_WriteData_in [31:0] $end
$var wire 32 +" MEM_ALU_Res_in [31:0] $end
$var wire 2 ," Forward_in [1:0] $end
$var wire 32 -" EXRS_Data_in [31:0] $end
$var reg 32 ." MUX_Res [31:0] $end
$upscope $end
$scope module Forwarding_Unit $end
$var wire 2 /" Forward_A_o [1:0] $end
$var wire 2 0" Forward_B_o [1:0] $end
$var wire 1 D WB_RegWrite_i $end
$var wire 5 1" WB_Rd_i [4:0] $end
$var wire 1 ^ MEM_RegWrite_i $end
$var wire 5 2" MEM_Rd_i [4:0] $end
$var wire 5 3" EX_RS2_i [4:0] $end
$var wire 5 4" EX_RS1_i [4:0] $end
$var reg 2 5" Forward_A_res [1:0] $end
$var reg 2 6" Forward_B_res [1:0] $end
$var reg 1 7" flag_A $end
$var reg 1 8" flag_B $end
$upscope $end
$scope module Hazard_Detection $end
$var wire 5 9" RS1addr_i [4:0] $end
$var wire 5 :" RS2addr_i [4:0] $end
$var wire 5 ;" RDaddr_i [4:0] $end
$var wire 1 U MemRead_i $end
$var reg 1 @ NoOp_o $end
$var reg 1 ? PCWrite_o $end
$var reg 1 7 Stall_o $end
$upscope $end
$scope module Instruction_Memory $end
$var wire 32 <" instr_o [31:0] $end
$var wire 32 =" addr_i [31:0] $end
$upscope $end
$scope module MUX_ALUSrc $end
$var wire 32 >" data1_i [31:0] $end
$var wire 1 V select_i $end
$var wire 32 ?" data_o [31:0] $end
$var wire 32 @" data2_i [31:0] $end
$upscope $end
$scope module MUX_MemtoReg $end
$var wire 1 F select_i $end
$var wire 32 A" data_o [31:0] $end
$var wire 32 B" data2_i [31:0] $end
$var wire 32 C" data1_i [31:0] $end
$upscope $end
$scope module MUX_PC $end
$var wire 32 D" data1_i [31:0] $end
$var wire 32 E" data2_i [31:0] $end
$var wire 1 \ select_i $end
$var wire 32 F" data_o [31:0] $end
$upscope $end
$scope module PC $end
$var wire 1 ? PCWrite_i $end
$var wire 1 ' clk_i $end
$var wire 32 G" pc_i [31:0] $end
$var wire 1 ( rst_i $end
$var wire 1 ) start_i $end
$var wire 1 l stall_i $end
$var reg 32 H" pc_o [31:0] $end
$upscope $end
$scope module Register_EXMEM $end
$var wire 32 I" ALU_Res_i [31:0] $end
$var wire 32 J" MemWrite_Data_i [31:0] $end
$var wire 1 ' clk_i $end
$var wire 1 ) start_i $end
$var wire 1 l stall_i $end
$var wire 1 M RegWrite_i $end
$var wire 5 K" RDaddr_i [4:0] $end
$var wire 1 S MemtoReg_i $end
$var wire 1 T MemWrite_i $end
$var wire 1 U MemRead_i $end
$var reg 32 L" ALU_Res_o [31:0] $end
$var reg 1 c MemRead_o $end
$var reg 32 M" MemWrite_Data_o [31:0] $end
$var reg 1 b MemWrite_o $end
$var reg 1 ` MemtoReg_o $end
$var reg 5 N" RDaddr_o [4:0] $end
$var reg 1 ^ RegWrite_o $end
$upscope $end
$scope module Register_IDEX $end
$var wire 2 O" ALUOp_i [1:0] $end
$var wire 1 j ALUSrc_i $end
$var wire 1 h MemRead_i $end
$var wire 1 g MemWrite_i $end
$var wire 1 f MemtoReg_i $end
$var wire 5 P" RDaddr_i [4:0] $end
$var wire 5 Q" RS1Addr_i [4:0] $end
$var wire 5 R" RS2Addr_i [4:0] $end
$var wire 1 e RegWrite_i $end
$var wire 1 ' clk_i $end
$var wire 10 S" funct_i [9:0] $end
$var wire 1 ) start_i $end
$var wire 1 l stall_i $end
$var wire 32 T" SignExtend_Res_i [31:0] $end
$var wire 32 U" RS2Data_i [31:0] $end
$var wire 32 V" RS1Data_i [31:0] $end
$var reg 2 W" ALUOp_o [1:0] $end
$var reg 1 V ALUSrc_o $end
$var reg 1 U MemRead_o $end
$var reg 1 T MemWrite_o $end
$var reg 1 S MemtoReg_o $end
$var reg 5 X" RDaddr_o [4:0] $end
$var reg 5 Y" RS1Addr_o [4:0] $end
$var reg 32 Z" RS1Data_o [31:0] $end
$var reg 5 [" RS2Addr_o [4:0] $end
$var reg 32 \" RS2Data_o [31:0] $end
$var reg 1 M RegWrite_o $end
$var reg 32 ]" SignExtend_Res_o [31:0] $end
$var reg 10 ^" funct_o [9:0] $end
$upscope $end
$scope module Register_IFID $end
$var wire 1 \ Flush_i $end
$var wire 1 7 Stall_i $end
$var wire 1 ' clk_i $end
$var wire 32 _" instr_i [31:0] $end
$var wire 32 `" pc_i [31:0] $end
$var wire 1 ) start_i $end
$var wire 1 l stall_i $end
$var reg 32 a" instr_o [31:0] $end
$var reg 32 b" pc_o [31:0] $end
$upscope $end
$scope module Register_MEMWB $end
$var wire 32 c" MemAddr_i [31:0] $end
$var wire 1 ` MemtoReg_i $end
$var wire 5 d" RDaddr_i [4:0] $end
$var wire 1 ^ RegWrite_i $end
$var wire 1 ' clk_i $end
$var wire 1 ) start_i $end
$var wire 1 l stall_i $end
$var wire 32 e" MemRead_Data_i [31:0] $end
$var reg 32 f" MemAddr_o [31:0] $end
$var reg 32 g" MemRead_Data_o [31:0] $end
$var reg 1 F MemtoReg_o $end
$var reg 5 h" RDaddr_o [4:0] $end
$var reg 1 D RegWrite_o $end
$upscope $end
$scope module Registers $end
$var wire 5 i" RDaddr_i [4:0] $end
$var wire 32 j" RDdata_i [31:0] $end
$var wire 5 k" RS1addr_i [4:0] $end
$var wire 5 l" RS2addr_i [4:0] $end
$var wire 1 D RegWrite_i $end
$var wire 1 ' clk_i $end
$var wire 32 m" RS2data_o [31:0] $end
$var wire 32 n" RS1data_o [31:0] $end
$upscope $end
$scope module ShiftLeft $end
$var wire 32 o" data_o [31:0] $end
$var wire 32 p" data_i [31:0] $end
$upscope $end
$scope module Sign_Extend $end
$var wire 32 q" data_i [31:0] $end
$var reg 32 r" data_o [31:0] $end
$upscope $end
$scope module dcache $end
$var wire 1 s" cache_dirty $end
$var wire 1 t" cache_sram_enable $end
$var wire 4 u" cache_sram_index [3:0] $end
$var wire 1 v" cache_sram_write $end
$var wire 1 ' clk_i $end
$var wire 1 c cpu_MemRead_i $end
$var wire 1 b cpu_MemWrite_i $end
$var wire 32 w" cpu_addr_i [31:0] $end
$var wire 32 x" cpu_data_i [31:0] $end
$var wire 32 y" cpu_data_o [31:0] $end
$var wire 1 z" cpu_req $end
$var wire 1 l cpu_stall_o $end
$var wire 256 {" mem_data_o [255:0] $end
$var wire 1 $ mem_enable_o $end
$var wire 1 # mem_write_o $end
$var wire 1 ( rst_i $end
$var wire 1 |" write_hit $end
$var wire 1 }" sram_valid $end
$var wire 22 ~" sram_tag [21:0] $end
$var wire 1 !# sram_dirty $end
$var wire 25 "# sram_cache_tag [24:0] $end
$var wire 256 ## sram_cache_data [255:0] $end
$var wire 256 $# r_hit_data [255:0] $end
$var wire 256 %# mem_data_i [255:0] $end
$var wire 32 &# mem_addr_o [31:0] $end
$var wire 1 " mem_ack_i $end
$var wire 1 '# hit $end
$var wire 23 (# cpu_tag [22:0] $end
$var wire 5 )# cpu_offset [4:0] $end
$var wire 4 *# cpu_index [3:0] $end
$var wire 25 +# cache_sram_tag [24:0] $end
$var wire 256 ,# cache_sram_data [255:0] $end
$var reg 1 -# cache_write $end
$var reg 32 .# cpu_data [31:0] $end
$var reg 1 /# mem_enable $end
$var reg 1 0# mem_write $end
$var reg 3 1# state [2:0] $end
$var reg 256 2# w_hit_data [255:0] $end
$var reg 1 3# write_back $end
$scope module dcache_sram $end
$var wire 4 4# addr_i [3:0] $end
$var wire 1 ' clk_i $end
$var wire 256 5# data_i [255:0] $end
$var wire 1 t" enable_i $end
$var wire 1 '# hit_o $end
$var wire 1 6# res_1 $end
$var wire 1 7# res_2 $end
$var wire 1 ( rst_i $end
$var wire 25 8# tag_i [24:0] $end
$var wire 1 v" write_i $end
$var wire 25 9# tag_o [24:0] $end
$var wire 1 :# equal_2 $end
$var wire 1 ;# equal_1 $end
$var wire 256 <# data_o [255:0] $end
$var reg 16 =# LRU [15:0] $end
$var integer 32 ># i [31:0] $end
$var integer 32 ?# j [31:0] $end
$upscope $end
$upscope $end
$upscope $end
$scope module Data_Memory $end
$var wire 1 " ack_o $end
$var wire 32 @# addr_i [31:0] $end
$var wire 1 ' clk_i $end
$var wire 256 A# data_i [255:0] $end
$var wire 256 B# data_o [255:0] $end
$var wire 1 $ enable_i $end
$var wire 1 ( rst_i $end
$var wire 1 # write_i $end
$var wire 27 C# addr [26:0] $end
$var reg 4 D# count [3:0] $end
$var reg 256 E# data [255:0] $end
$var reg 2 F# state [1:0] $end
$upscope $end
$upscope $end
$enddefinitions $end
#0
$dumpvars
b0 F#
bx E#
b0 D#
bx C#
bx B#
bx A#
bx00000 @#
b10 ?#
b10000 >#
b0 =#
bx <#
x;#
x:#
bx 9#
b1xxxxxxxxxxxxxxxxxxxxxxxx 8#
x7#
x6#
bx 5#
bx 4#
03#
bx 2#
b0 1#
00#
0/#
bx .#
0-#
bx ,#
b1xxxxxxxxxxxxxxxxxxxxxxxx +#
bx *#
bx )#
bx (#
x'#
bx00000 &#
bx %#
bx $#
bx ##
bx "#
x!#
bx ~"
x}"
x|"
bx {"
xz"
bx y"
bx x"
bx w"
xv"
bx u"
xt"
xs"
bx r"
bx q"
bx p"
bx0 o"
bx n"
bx m"
bx l"
bx k"
bx j"
bx i"
bx h"
bx g"
bx f"
bx e"
bx d"
bx c"
bx b"
bx a"
b0 `"
bx _"
bx ^"
bx ]"
bx \"
bx ["
bx Z"
bx Y"
bx X"
bx W"
bx V"
bx U"
bx T"
bx S"
bx R"
bx Q"
bx P"
bx O"
bx N"
bx M"
bx L"
bx K"
bx J"
bx I"
b0 H"
bx G"
bx F"
bx E"
b100 D"
bx C"
bx B"
bx A"
bx @"
bx ?"
bx >"
b0 ="
bx <"
bx ;"
bx :"
bx 9"
x8"
x7"
bx 6"
bx 5"
bx 4"
bx 3"
bx 2"
bx 1"
bx 0"
bx /"
bx ."
bx -"
bx ,"
bx +"
bx *"
bx )"
bx ("
bx '"
bx &"
bx %"
bx $"
bx #"
bx ""
bx !"
bx ~
bx }
b0 |
b100 {
b100 z
bx0 y
bx x
bx w
bx v
bx u
bx t
bx s
bx r
bx q
bx p
bx o
bx n
bx m
xl
bx k
xj
xi
xh
xg
xf
xe
bx d
xc
xb
bx a
x`
bx _
x^
x]
x\
bx [
bx Z
bx Y
bx X
bx W
xV
xU
xT
xS
bx R
bx Q
bx P
bx O
bx N
xM
bx L
bx K
bx J
bx I
bx H
bx G
xF
bx E
xD
bx C
bx B
bx A
x@
x?
bx >
b100 =
b0 <
bx ;
bx :
bx0 9
bx 8
x7
bx 6
bx00000 5
bx 4
bx 3
bx 2
bx 1
bx 0
bx /
b0 .
bx -
bx ,
x+
bx *
0)
1(
0'
bx00000 &
bx %
0$
0#
0"
bx !
$end
#12
b0 n
b0 s
b0 I"
bx00000000000000000000000000000000 2#
0@
07
1?
b110 o
b110 r
b110 v
b0 ~"
b0 C#
0'#
0!#
0}"
b100 A
b100 F"
b100 G"
1;#
1:#
06#
07#
b0 %
b0 3
b0 {"
b0 A#
b0 ##
b0 <#
b0 "#
b0 9#
0\
1]
0v"
0l
b0 &
b0 5
b0 &#
b0 @#
b0 9
b0 y
b0 o"
0i
0j
b11 k
b11 ~
b11 O"
0g
0h
0f
0e
b0 :
b0 !"
b0 U"
b0 m"
b0 ;
b0 ""
b0 V"
b0 n"
b0 B
b0 $"
b0 *"
b0 A"
b0 j"
0s"
0|"
0t"
0z"
08"
07"
b0 X
b0 ,"
b0 0"
b0 6"
b0 Y
b0 &"
b0 /"
b0 5"
b1000000000000000000000000 +#
b1000000000000000000000000 8#
b0 (#
b0 u"
b0 4#
b0 *#
b0 )#
b0 C
b0 p
b0 ?"
b0 Z
b0 )"
b0 ."
b0 >"
b0 J"
b0 [
b0 q
b0 #"
b0 ("
b0 8
b0 T"
b0 p"
b0 r"
b0 R"
b0 Q"
b0 P"
b0 S"
b0 :"
b0 9"
b0 }
b0 l"
b0 k"
b101 2
b11 1
0F
0D
b0 E
b0 1"
b0 h"
b0 i"
b0 G
b0 B"
b0 g"
b0 H
b0 C"
b0 f"
0b
0c
0`
0^
b0 _
b0 2"
b0 N"
b0 d"
b0 a
b0 M"
b0 x"
b0 d
b0 %"
b0 +"
b0 L"
b0 c"
b0 w"
0V
b0 W
b0 u
b0 W"
0T
0U
0S
0M
b0 R
b0 ;"
b0 K"
b0 X"
b0 K
b0 t
b0 ^"
b0 L
b0 @"
b0 ]"
b0 N
b0 -"
b0 \"
b0 P
b0 '"
b0 Z"
b0 I
b0 a"
b0 q"
b10 0
b10011110000011 6
b10011110000011 <"
b10011110000011 _"
b1000000000 /
1)
0(
#25
b1010 o
b1010 r
b1010 v
1j
b0 k
b0 ~
b0 O"
1h
1f
1e
b10000000010011100000011 6
b10000000010011100000011 <"
b10000000010011100000011 _"
b1000 A
b1000 F"
b1000 G"
b1111 P"
b10 S"
b11 }
b1000 =
b1000 {
b1000 D"
b100 <
b100 |
b100 ="
b100 H"
b100 `"
b0 >
b0 w
b0 E"
b0 J
b0 x
b0 b"
b10011110000011 I
b10011110000011 a"
b10011110000011 q"
b11 W
b11 u
b11 W"
b0 O
b0 3"
b0 ["
b0 Q
b0 4"
b0 Y"
bx G
bx B"
bx g"
b1 .
0+
1'
#50
0'
#75
b1000 o
b1000 r
b1000 v
b1000 9
b1000 y
b1000 o"
b100000000010011010000011 6
b100000000010011010000011 <"
b100000000010011010000011 _"
b1100 A
b1100 F"
b1100 G"
b100 8
b100 T"
b100 p"
b100 r"
b100 R"
b1110 P"
b100 :"
b100 l"
b1100 =
b1100 {
b1100 D"
b1000 <
b1000 |
b1000 ="
b1000 H"
b1000 `"
1V
b0 W
b0 u
b0 W"
1U
1S
1M
b1111 R
b1111 ;"
b1111 K"
b1111 X"
b10 K
b10 t
b10 ^"
b1100 >
b1100 w
b1100 E"
b100 J
b100 x
b100 b"
b10000000010011100000011 I
b10000000010011100000011 a"
b10000000010011100000011 q"
b10 .
1'
#100
0'
#125
b100 n
b100 s
b100 I"
b10000 9
b10000 y
b10000 o"
1l
b110000000010011000000011 6
b110000000010011000000011 <"
b110000000010011000000011 _"
b10000 A
b10000 F"
b10000 G"
b1000 8
b1000 T"
b1000 p"
b1000 r"
b1000 R"
b1101 P"
b1000 :"
b1000 l"
b100 C
b100 p
b100 ?"
1t"
1z"
b10000 =
b10000 {
b10000 D"
b1100 <
b1100 |
b1100 ="
b1100 H"
b1100 `"
b11000 >
b11000 w
b11000 E"
b1000 J
b1000 x
b1000 b"
b100000000010011010000011 I
b100000000010011010000011 a"
b100000000010011010000011 q"
b100 O
b100 3"
b100 ["
b1110 R
b1110 ;"
b1110 K"
b1110 X"
b100 L
b100 @"
b100 ]"
1c
1`
1^
b1111 _
b1111 2"
b1111 N"
b1111 d"
b11 .
1'
#150
0'
#175
b100 1#
b100 .
1+
1'
#200
0'
#225
1$
1/#
b1 1#
b101 .
1'
#250
0'
#275
b1 D#
b1 F#
b110 .
1'
#300
0'
#325
b10 D#
b111 .
1'
#350
0'
#375
b11 D#
b1000 .
1'
#400
0'
#425
b100 D#
b1001 .
1'
#450
0'
#475
b101 D#
b1010 .
1'
#500
0'
#525
b110 D#
b1011 .
1'
#550
0'
#575
b111 D#
b1100 .
1'
#600
0'
#625
b1000 D#
b1101 .
1'
#650
0'
#675
1"
b1001 D#
b1110 .
1'
#700
0'
#725
0"
1v"
b100010001000100100010001000100011001100110011010001000100010001010101010101010110011001100110011101110111011110001000100010001001100110011001101010101010101010111011101110111100110011001100110111011101110100000000000000000000000000000000 2#
b11101110111011101111111111111111 m
b11101110111011101111111111111111 e"
b11101110111011101111111111111111 y"
b11101110111011101111111111111111 .#
b0 D#
b0 F#
1-#
0$
0/#
b10 1#
b100010001000100100010001000100011001100110011010001000100010001010101010101010110011001100110011101110111011110001000100010001001100110011001101010101010101010111011101110111100110011001100110111011101110111101110111011101111111111111111 $#
b100010001000100100010001000100011001100110011010001000100010001010101010101010110011001100110011101110111011110001000100010001001100110011001101010101010101010111011101110111100110011001100110111011101110111101110111011101111111111111111 ,#
b100010001000100100010001000100011001100110011010001000100010001010101010101010110011001100110011101110111011110001000100010001001100110011001101010101010101010111011101110111100110011001100110111011101110111101110111011101111111111111111 5#
b100010001000100100010001000100011001100110011010001000100010001010101010101010110011001100110011101110111011110001000100010001001100110011001101010101010101010111011101110111100110011001100110111011101110111101110111011101111111111111111 !
b100010001000100100010001000100011001100110011010001000100010001010101010101010110011001100110011101110111011110001000100010001001100110011001101010101010101010111011101110111100110011001100110111011101110111101110111011101111111111111111 4
b100010001000100100010001000100011001100110011010001000100010001010101010101010110011001100110011101110111011110001000100010001001100110011001101010101010101010111011101110111100110011001100110111011101110111101110111011101111111111111111 %#
b100010001000100100010001000100011001100110011010001000100010001010101010101010110011001100110011101110111011110001000100010001001100110011001101010101010101010111011101110111100110011001100110111011101110111101110111011101111111111111111 B#
b100010001000100100010001000100011001100110011010001000100010001010101010101010110011001100110011101110111011110001000100010001001100110011001101010101010101010111011101110111100110011001100110111011101110111101110111011101111111111111111 E#
b1111 .
1'
#750
0'
#775
b100010001000100100010001000100011001100110011010001000100010001010101010101010110011001100110011101110111011110001000100010001001100110011001101010101010101010111011101110111100110011001100110111011101110100000000000000000000000000000000 2#
b11101110111011101111111111111111 m
b11101110111011101111111111111111 e"
b11101110111011101111111111111111 y"
b11101110111011101111111111111111 .#
1!#
1}"
0l
b100010001000100100010001000100011001100110011010001000100010001010101010101010110011001100110011101110111011110001000100010001001100110011001101010101010101010111011101110111100110011001100110111011101110111101110111011101111111111111111 %
b100010001000100100010001000100011001100110011010001000100010001010101010101010110011001100110011101110111011110001000100010001001100110011001101010101010101010111011101110111100110011001100110111011101110111101110111011101111111111111111 3
b100010001000100100010001000100011001100110011010001000100010001010101010101010110011001100110011101110111011110001000100010001001100110011001101010101010101010111011101110111100110011001100110111011101110111101110111011101111111111111111 {"
b100010001000100100010001000100011001100110011010001000100010001010101010101010110011001100110011101110111011110001000100010001001100110011001101010101010101010111011101110111100110011001100110111011101110111101110111011101111111111111111 A#
b100010001000100100010001000100011001100110011010001000100010001010101010101010110011001100110011101110111011110001000100010001001100110011001101010101010101010111011101110111100110011001100110111011101110111101110111011101111111111111111 ##
b100010001000100100010001000100011001100110011010001000100010001010101010101010110011001100110011101110111011110001000100010001001100110011001101010101010101010111011101110111100110011001100110111011101110111101110111011101111111111111111 <#
b1100000000000000000000000 "#
b1100000000000000000000000 9#
b100010001000100100010001000100011001100110011010001000100010001010101010101010110011001100110011101110111011110001000100010001001100110011001101010101010101010111011101110111100110011001100110111011101110111101110111011101111111111111111 $#
b100010001000100100010001000100011001100110011010001000100010001010101010101010110011001100110011101110111011110001000100010001001100110011001101010101010101010111011101110111100110011001100110111011101110100000000000000000000000000000000 ,#
b100010001000100100010001000100011001100110011010001000100010001010101010101010110011001100110011101110111011110001000100010001001100110011001101010101010101010111011101110111100110011001100110111011101110100000000000000000000000000000000 5#
1'#
16#
0v"
b1 =#
0-#
b0 1#
b10000 .
1'
#800
0'
#825
b100010001000100100010001000100011001100110011010001000100010001010101010101010110011001100110011101110111011110001000100010001001100110011001101010101010101010111011101110110000000000000000000000000000000011101110111011101111111111111111 ,#
b100010001000100100010001000100011001100110011010001000100010001010101010101010110011001100110011101110111011110001000100010001001100110011001101010101010101010111011101110110000000000000000000000000000000011101110111011101111111111111111 5#
b1000 n
b1000 s
b1000 I"
b100010001000100100010001000100011001100110011010001000100010001010101010101010110011001100110011101110111011110001000100010001001100110011001101010101010101010111011101110110000000000000000000000000000000011101110111011101111111111111111 2#
b11001100110011001101110111011101 m
b11001100110011001101110111011101 e"
b11001100110011001101110111011101 y"
b11001100110011001101110111011101 .#
b11000 9
b11000 y
b11000 o"
b1000000000010010110000011 6
b1000000000010010110000011 <"
b1000000000010010110000011 _"
b10100 A
b10100 F"
b10100 G"
b1100 8
b1100 T"
b1100 p"
b1100 r"
b1100 R"
b1100 P"
b1100 :"
b1100 l"
b1000 C
b1000 p
b1000 ?"
b100 )#
b11101110111011101111111111111111 B
b11101110111011101111111111111111 $"
b11101110111011101111111111111111 *"
b11101110111011101111111111111111 A"
b11101110111011101111111111111111 j"
b10100 =
b10100 {
b10100 D"
b10000 <
b10000 |
b10000 ="
b10000 H"
b10000 `"
b100100 >
b100100 w
b100100 E"
b1100 J
b1100 x
b1100 b"
b110000000010011000000011 I
b110000000010011000000011 a"
b110000000010011000000011 q"
b1000 O
b1000 3"
b1000 ["
b1101 R
b1101 ;"
b1101 K"
b1101 X"
b1000 L
b1000 @"
b1000 ]"
b1110 _
b1110 2"
b1110 N"
b1110 d"
b100 d
b100 %"
b100 +"
b100 L"
b100 c"
b100 w"
1F
1D
b1111 E
b1111 1"
b1111 h"
b1111 i"
b11101110111011101111111111111111 G
b11101110111011101111111111111111 B"
b11101110111011101111111111111111 g"
b10001 .
0+
1'
#850
0'
#875
b100010001000100100010001000100011001100110011010001000100010001010101010101010110011001100110011101110111011110001000100010001001100110011001000000000000000000000000000000001100110011001100110111011101110111101110111011101111111111111111 ,#
b100010001000100100010001000100011001100110011010001000100010001010101010101010110011001100110011101110111011110001000100010001001100110011001000000000000000000000000000000001100110011001100110111011101110111101110111011101111111111111111 5#
b100010001000100100010001000100011001100110011010001000100010001010101010101010110011001100110011101110111011110001000100010001001100110011001000000000000000000000000000000001100110011001100110111011101110111101110111011101111111111111111 2#
b10101010101010101011101110111011 m
b10101010101010101011101110111011 e"
b10101010101010101011101110111011 y"
b10101010101010101011101110111011 .#
b1100 n
b1100 s
b1100 I"
b100000 9
b100000 y
b100000 o"
b1010000000010010100000011 6
b1010000000010010100000011 <"
b1010000000010010100000011 _"
b11000 A
b11000 F"
b11000 G"
b11001100110011001101110111011101 B
b11001100110011001101110111011101 $"
b11001100110011001101110111011101 *"
b11001100110011001101110111011101 A"
b11001100110011001101110111011101 j"
b1000 )#
b1100 C
b1100 p
b1100 ?"
b10000 8
b10000 T"
b10000 p"
b10000 r"
b10000 R"
b1011 P"
b10000 :"
b10000 l"
b11000 =
b11000 {
b11000 D"
b10100 <
b10100 |
b10100 ="
b10100 H"
b10100 `"
b1110 E
b1110 1"
b1110 h"
b1110 i"
b11001100110011001101110111011101 G
b11001100110011001101110111011101 B"
b11001100110011001101110111011101 g"
b100 H
b100 C"
b100 f"
b1101 _
b1101 2"
b1101 N"
b1101 d"
b1000 d
b1000 %"
b1000 +"
b1000 L"
b1000 c"
b1000 w"
b1100 O
b1100 3"
b1100 ["
b1100 R
b1100 ;"
b1100 K"
b1100 X"
b1100 L
b1100 @"
b1100 ]"
b110000 >
b110000 w
b110000 E"
b10000 J
b10000 x
b10000 b"
b1000000000010010110000011 I
b1000000000010010110000011 a"
b1000000000010010110000011 q"
b10010 .
1'
#900
0'
