Project 1/b08902083_project1/codes/CPU.vcd
$date
	Wed Jun  2 12:56:05 2021
$end
$version
	Icarus Verilog
$end
$timescale
	1s
$end
$scope module TestBench $end
$var reg 1 ! Clk $end
$var reg 1 " Reset $end
$var reg 1 # Start $end
$var integer 32 $ counter [31:0] $end
$var integer 32 % flush [31:0] $end
$var integer 32 & i [31:0] $end
$var integer 32 ' outfile [31:0] $end
$var integer 32 ( stall [31:0] $end
$scope module CPU $end
$var wire 1 ! clk_i $end
$var wire 1 " rst_i $end
$var wire 1 # start_i $end
$var wire 32 ) instr [31:0] $end
$var wire 1 * Stall $end
$var wire 32 + SignExtend_Res [31:0] $end
$var wire 32 , ShiftLeft_Res [31:0] $end
$var wire 32 - RS2Data [31:0] $end
$var wire 32 . RS1Data [31:0] $end
$var wire 32 / PC_now [31:0] $end
$var wire 32 0 PC_four [31:0] $end
$var wire 32 1 PC_branch [31:0] $end
$var wire 1 2 PCWrite $end
$var wire 1 3 NoOp $end
$var wire 32 4 MemRead_Res [31:0] $end
$var wire 32 5 MUX_PC_Res [31:0] $end
$var wire 32 6 MUX_MemtoReg_Res [31:0] $end
$var wire 32 7 MUX_ALUSrc_Res [31:0] $end
$var wire 1 8 MEMWB_RegWrite $end
$var wire 5 9 MEMWB_RDaddr [4:0] $end
$var wire 1 : MEMWB_MemtoReg $end
$var wire 32 ; MEMWB_MemRead_Data [31:0] $end
$var wire 32 < MEMWB_ALU_Res [31:0] $end
$var wire 32 = IFID_instr [31:0] $end
$var wire 32 > IFID_PC [31:0] $end
$var wire 10 ? IDEX_funct [9:0] $end
$var wire 32 @ IDEX_SignExtend_Res [31:0] $end
$var wire 1 A IDEX_RegWrite $end
$var wire 32 B IDEX_RS2Data [31:0] $end
$var wire 5 C IDEX_RS2Addr [4:0] $end
$var wire 32 D IDEX_RS1Data [31:0] $end
$var wire 5 E IDEX_RS1Addr [4:0] $end
$var wire 5 F IDEX_RDaddr [4:0] $end
$var wire 1 G IDEX_MemtoReg $end
$var wire 1 H IDEX_MemWrite $end
$var wire 1 I IDEX_MemRead $end
$var wire 1 J IDEX_ALUSrc $end
$var wire 2 K IDEX_ALUOp [1:0] $end
$var wire 2 L Forward_B [1:0] $end
$var wire 2 M Forward_A [1:0] $end
$var wire 32 N ForwardB_MUX_Res [31:0] $end
$var wire 32 O ForwardA_MUX_Res [31:0] $end
$var wire 1 P Flush $end
$var wire 1 Q Equal_Res $end
$var wire 1 R EXMEM_RegWrite $end
$var wire 5 S EXMEM_RDaddr [4:0] $end
$var wire 1 T EXMEM_MemtoReg $end
$var wire 32 U EXMEM_MemWrite_Data [31:0] $end
$var wire 1 V EXMEM_MemWrite $end
$var wire 1 W EXMEM_MemRead $end
$var wire 32 X EXMEM_ALU_Res [31:0] $end
$var wire 1 Y Ctrl_RegWrite $end
$var wire 1 Z Ctrl_MemtoReg $end
$var wire 1 [ Ctrl_MemWrite $end
$var wire 1 \ Ctrl_MemRead $end
$var wire 1 ] Ctrl_Branch $end
$var wire 1 ^ Ctrl_ALUSrc $end
$var wire 2 _ Ctrl_ALUOp [1:0] $end
$var wire 32 ` ALU_Res [31:0] $end
$var wire 4 a ALUCtrl [3:0] $end
$scope module ALU $end
$var wire 32 b data2_i [31:0] $end
$var wire 32 c data1_i [31:0] $end
$var wire 4 d ALUCtrl_i [3:0] $end
$var reg 32 e data_o [31:0] $end
$upscope $end
$scope module ALU_Control $end
$var wire 10 f funct_i [9:0] $end
$var wire 2 g ALUOp_i [1:0] $end
$var reg 4 h ALUCtrl_o [3:0] $end
$upscope $end
$scope module Add_Branch $end
$var wire 32 i data_o [31:0] $end
$var wire 32 j data2_in [31:0] $end
$var wire 32 k data1_in [31:0] $end
$upscope $end
$scope module Add_PC $end
$var wire 32 l data2_in [31:0] $end
$var wire 32 m data_o [31:0] $end
$var wire 32 n data1_in [31:0] $end
$upscope $end
$scope module And $end
$var wire 1 P data_o $end
$var wire 1 Q data2_in $end
$var wire 1 ] data1_in $end
$upscope $end
$scope module Control $end
$var wire 7 o Op_i [6:0] $end
$var wire 1 3 NoOp_i $end
$var reg 2 p ALUOp_o [1:0] $end
$var reg 1 ^ ALUSrc_o $end
$var reg 1 ] Branch_o $end
$var reg 1 \ MemRead_o $end
$var reg 1 [ MemWrite_o $end
$var reg 1 Z MemtoReg_o $end
$var reg 1 Y RegWrite_o $end
$upscope $end
$scope module Data_Memory $end
$var wire 1 ! clk_i $end
$var wire 32 q data_o [31:0] $end
$var wire 32 r data_i [31:0] $end
$var wire 32 s addr_i [31:0] $end
$var wire 1 V MemWrite_i $end
$var wire 1 W MemRead_i $end
$upscope $end
$scope module Equal $end
$var wire 1 Q data_o $end
$var wire 32 t data2_in [31:0] $end
$var wire 32 u data1_in [31:0] $end
$upscope $end
$scope module ForwardA_MUX $end
$var wire 32 v MUX_Res_o [31:0] $end
$var wire 32 w WB_WriteData_in [31:0] $end
$var wire 32 x MEM_ALU_Res_in [31:0] $end
$var wire 2 y Forward_in [1:0] $end
$var wire 32 z EXRS_Data_in [31:0] $end
$var reg 32 { MUX_Res [31:0] $end
$upscope $end
$scope module ForwardB_MUX $end
$var wire 32 | MUX_Res_o [31:0] $end
$var wire 32 } WB_WriteData_in [31:0] $end
$var wire 32 ~ MEM_ALU_Res_in [31:0] $end
$var wire 2 !" Forward_in [1:0] $end
$var wire 32 "" EXRS_Data_in [31:0] $end
$var reg 32 #" MUX_Res [31:0] $end
$upscope $end
$scope module Forwarding_Unit $end
$var wire 2 $" Forward_A_o [1:0] $end
$var wire 2 %" Forward_B_o [1:0] $end
$var wire 1 8 WB_RegWrite_i $end
$var wire 5 &" WB_Rd_i [4:0] $end
$var wire 1 R MEM_RegWrite_i $end
$var wire 5 '" MEM_Rd_i [4:0] $end
$var wire 5 (" EX_RS2_i [4:0] $end
$var wire 5 )" EX_RS1_i [4:0] $end
$var reg 2 *" Forward_A_res [1:0] $end
$var reg 2 +" Forward_B_res [1:0] $end
$var reg 1 ," flag_A $end
$var reg 1 -" flag_B $end
$upscope $end
$scope module Hazard_Detection $end
$var wire 5 ." RS1addr_i [4:0] $end
$var wire 5 /" RS2addr_i [4:0] $end
$var wire 5 0" RDaddr_i [4:0] $end
$var wire 1 I MemRead_i $end
$var reg 1 3 NoOp_o $end
$var reg 1 2 PCWrite_o $end
$var reg 1 * Stall_o $end
$upscope $end
$scope module Instruction_Memory $end
$var wire 32 1" instr_o [31:0] $end
$var wire 32 2" addr_i [31:0] $end
$upscope $end
$scope module MUX_ALUSrc $end
$var wire 32 3" data1_i [31:0] $end
$var wire 1 J select_i $end
$var wire 32 4" data_o [31:0] $end
$var wire 32 5" data2_i [31:0] $end
$upscope $end
$scope module MUX_MemtoReg $end
$var wire 1 : select_i $end
$var wire 32 6" data_o [31:0] $end
$var wire 32 7" data2_i [31:0] $end
$var wire 32 8" data1_i [31:0] $end
$upscope $end
$scope module MUX_PC $end
$var wire 32 9" data1_i [31:0] $end
$var wire 32 :" data2_i [31:0] $end
$var wire 1 P select_i $end
$var wire 32 ;" data_o [31:0] $end
$upscope $end
$scope module PC $end
$var wire 1 2 PCWrite_i $end
$var wire 1 ! clk_i $end
$var wire 32 <" pc_i [31:0] $end
$var wire 1 " rst_i $end
$var wire 1 # start_i $end
$var reg 32 =" pc_o [31:0] $end
$upscope $end
$scope module Register_EXMEM $end
$var wire 32 >" ALU_Res_i [31:0] $end
$var wire 32 ?" MemWrite_Data_i [31:0] $end
$var wire 1 ! clk_i $end
$var wire 1 # start_i $end
$var wire 1 A RegWrite_i $end
$var wire 5 @" RDaddr_i [4:0] $end
$var wire 1 G MemtoReg_i $end
$var wire 1 H MemWrite_i $end
$var wire 1 I MemRead_i $end
$var reg 32 A" ALU_Res_o [31:0] $end
$var reg 1 W MemRead_o $end
$var reg 32 B" MemWrite_Data_o [31:0] $end
$var reg 1 V MemWrite_o $end
$var reg 1 T MemtoReg_o $end
$var reg 5 C" RDaddr_o [4:0] $end
$var reg 1 R RegWrite_o $end
$upscope $end
$scope module Register_IDEX $end
$var wire 2 D" ALUOp_i [1:0] $end
$var wire 1 ^ ALUSrc_i $end
$var wire 1 \ MemRead_i $end
$var wire 1 [ MemWrite_i $end
$var wire 1 Z MemtoReg_i $end
$var wire 5 E" RDaddr_i [4:0] $end
$var wire 5 F" RS1Addr_i [4:0] $end
$var wire 5 G" RS2Addr_i [4:0] $end
$var wire 1 Y RegWrite_i $end
$var wire 1 ! clk_i $end
$var wire 10 H" funct_i [9:0] $end
$var wire 1 # start_i $end
$var wire 32 I" SignExtend_Res_i [31:0] $end
$var wire 32 J" RS2Data_i [31:0] $end
$var wire 32 K" RS1Data_i [31:0] $end
$var reg 2 L" ALUOp_o [1:0] $end
$var reg 1 J ALUSrc_o $end
$var reg 1 I MemRead_o $end
$var reg 1 H MemWrite_o $end
$var reg 1 G MemtoReg_o $end
$var reg 5 M" RDaddr_o [4:0] $end
$var reg 5 N" RS1Addr_o [4:0] $end
$var reg 32 O" RS1Data_o [31:0] $end
$var reg 5 P" RS2Addr_o [4:0] $end
$var reg 32 Q" RS2Data_o [31:0] $end
$var reg 1 A RegWrite_o $end
$var reg 32 R" SignExtend_Res_o [31:0] $end
$var reg 10 S" funct_o [9:0] $end
$upscope $end
$scope module Register_IFID $end
$var wire 1 P Flush_i $end
$var wire 1 * Stall_i $end
$var wire 1 ! clk_i $end
$var wire 32 T" instr_i [31:0] $end
$var wire 32 U" pc_i [31:0] $end
$var wire 1 # start_i $end
$var reg 32 V" instr_o [31:0] $end
$var reg 32 W" pc_o [31:0] $end
$upscope $end
$scope module Register_MEMWB $end
$var wire 32 X" MemAddr_i [31:0] $end
$var wire 32 Y" MemRead_Data_i [31:0] $end
$var wire 1 T MemtoReg_i $end
$var wire 5 Z" RDaddr_i [4:0] $end
$var wire 1 R RegWrite_i $end
$var wire 1 ! clk_i $end
$var wire 1 # start_i $end
$var reg 32 [" MemAddr_o [31:0] $end
$var reg 32 \" MemRead_Data_o [31:0] $end
$var reg 1 : MemtoReg_o $end
$var reg 5 ]" RDaddr_o [4:0] $end
$var reg 1 8 RegWrite_o $end
$upscope $end
$scope module Registers $end
$var wire 5 ^" RDaddr_i [4:0] $end
$var wire 32 _" RDdata_i [31:0] $end
$var wire 5 `" RS1addr_i [4:0] $end
$var wire 5 a" RS2addr_i [4:0] $end
$var wire 1 8 RegWrite_i $end
$var wire 1 ! clk_i $end
$var wire 32 b" RS2data_o [31:0] $end
$var wire 32 c" RS1data_o [31:0] $end
$upscope $end
$scope module ShiftLeft $end
$var wire 32 d" data_o [31:0] $end
$var wire 32 e" data_i [31:0] $end
$upscope $end
$scope module Sign_Extend $end
$var wire 32 f" data_i [31:0] $end
$var reg 32 g" data_o [31:0] $end
$upscope $end
$upscope $end
$upscope $end
$enddefinitions $end
#0
$dumpvars
b0 g"
b0 f"
b0 e"
b0 d"
b0 c"
b0 b"
b0 a"
b0 `"
b0 _"
b0 ^"
b0 ]"
b0 \"
b0 ["
b0 Z"
b0 Y"
b0 X"
b0 W"
b0 V"
b0 U"
b1100010000000100000110011 T"
b0 S"
b0 R"
b0 Q"
bx P"
b0 O"
bx N"
b0 M"
b0 L"
b0 K"
b0 J"
b0 I"
b0 H"
b0 G"
b0 F"
b0 E"
b11 D"
b0 C"
b0 B"
b0 A"
b0 @"
b0 ?"
b0 >"
b0 ="
b100 <"
b100 ;"
b0 :"
b100 9"
b0 8"
b0 7"
b0 6"
b0 5"
b0 4"
b0 3"
b0 2"
b1100010000000100000110011 1"
b0 0"
b0 /"
b0 ."
0-"
0,"
b0 +"
b0 *"
bx )"
bx ("
b0 '"
b0 &"
b0 %"
b0 $"
b0 #"
b0 ""
b0 !"
b0 ~
b0 }
b0 |
b0 {
b0 z
b0 y
b0 x
b0 w
b0 v
b0 u
b0 t
b0 s
b0 r
b0 q
b11 p
b0 o
b0 n
b100 m
b100 l
b0 k
b0 j
b0 i
b110 h
b0 g
b0 f
b0 e
b110 d
b0 c
b0 b
b110 a
b0 `
b11 _
0^
0]
0\
0[
0Z
0Y
b0 X
0W
0V
b0 U
0T
b0 S
0R
1Q
0P
b0 O
b0 N
b0 M
b0 L
b0 K
0J
0I
0H
0G
b0 F
bx E
b0 D
bx C
b0 B
0A
b0 @
b0 ?
b0 >
b0 =
b0 <
b0 ;
0:
b0 9
08
b0 7
b0 6
b100 5
b0 4
03
12
b0 1
b100 0
b0 /
b0 .
b0 -
b0 ,
b0 +
0*
b1100010000000100000110011 )
b0 (
b11 '
b100000 &
b0 %
b0 $
0#
1"
1!
$end
#12
1#
0"
#25
0!
#50
b1010 a
b1010 d
b1010 h
0Q
b10 _
b10 p
b10 D"
1Y
b11111111111111111111111111101000 -
b11111111111111111111111111101000 t
b11111111111111111111111111101000 J"
b11111111111111111111111111101000 b"
b11000 /"
b10000 ."
b11000 G"
b10000 F"
b10000 E"
b110011 o
b11000 a"
b10000 `"
b1100110000000100000110011 )
b1100110000000100000110011 1"
b1100110000000100000110011 T"
b1000 5
b1000 ;"
b1000 <"
b11 K
b11 g
b11 L"
b0 C
b0 ("
b0 P"
b0 E
b0 )"
b0 N"
b1100010000000100000110011 =
b1100010000000100000110011 V"
b1100010000000100000110011 f"
b1000 0
b1000 m
b1000 9"
b100 /
b100 n
b100 2"
b100 ="
b100 U"
b1 $
1!
#75
0!
#100
b11111111111111111111111111101000 `
b11111111111111111111111111101000 e
b11111111111111111111111111101000 >"
b11 a
b11 d
b11 h
b11111111111111111111111111100111 -
b11111111111111111111111111100111 t
b11111111111111111111111111100111 J"
b11111111111111111111111111100111 b"
b11111111111111111111111111101000 7
b11111111111111111111111111101000 b
b11111111111111111111111111101000 4"
b11001 /"
b11001 G"
b11001 a"
b11111111111111111111111111101000 N
b11111111111111111111111111101000 |
b11111111111111111111111111101000 #"
b11111111111111111111111111101000 3"
b11111111111111111111111111101000 ?"
b1101010000000100000110011 )
b1101010000000100000110011 1"
b1101010000000100000110011 T"
b1100 5
b1100 ;"
b1100 <"
b100 1
b100 i
b100 :"
b100 >
b100 j
b100 W"
b1100110000000100000110011 =
b1100110000000100000110011 V"
b1100110000000100000110011 f"
b10 K
b10 g
b10 L"
1A
b11000 C
b11000 ("
b11000 P"
b10000 E
b10000 )"
b10000 N"
b10000 F
b10000 0"
b10000 @"
b10000 M"
b11111111111111111111111111101000 B
b11111111111111111111111111101000 ""
b11111111111111111111111111101000 Q"
b1100 0
b1100 m
b1100 9"
b1000 /
b1000 n
b1000 2"
b1000 ="
b1000 U"
b10 $
1!
#125
0!
#150
b11111111111111111111111111001111 `
b11111111111111111111111111001111 e
b11111111111111111111111111001111 >"
b11111111111111111111111111100111 7
b11111111111111111111111111100111 b
b11111111111111111111111111100111 4"
b11111111111111111111111111100110 -
b11111111111111111111111111100110 t
b11111111111111111111111111100110 J"
b11111111111111111111111111100110 b"
b11111111111111111111111111101000 O
b11111111111111111111111111101000 c
b11111111111111111111111111101000 v
b11111111111111111111111111101000 {
1,"
b10 M
b10 y
b10 $"
b10 *"
b11111111111111111111111111100111 N
b11111111111111111111111111100111 |
b11111111111111111111111111100111 #"
b11111111111111111111111111100111 3"
b11111111111111111111111111100111 ?"
b11010 /"
b11010 G"
b11010 a"
b1110010000000100000110011 )
b1110010000000100000110011 1"
b1110010000000100000110011 T"
b10000 5
b10000 ;"
b10000 <"
1R
b10000 S
b10000 '"
b10000 C"
b10000 Z"
b11111111111111111111111111101000 U
b11111111111111111111111111101000 r
b11111111111111111111111111101000 B"
b11111111111111111111111111101000 X
b11111111111111111111111111101000 s
b11111111111111111111111111101000 x
b11111111111111111111111111101000 ~
b11111111111111111111111111101000 A"
b11111111111111111111111111101000 X"
b11001 C
b11001 ("
b11001 P"
b11111111111111111111111111100111 B
b11111111111111111111111111100111 ""
b11111111111111111111111111100111 Q"
b1000 1
b1000 i
b1000 :"
b1000 >
b1000 j
b1000 W"
b1101010000000100000110011 =
b1101010000000100000110011 V"
b1101010000000100000110011 f"
b10000 0
b10000 m
b10000 9"
b1100 /
b1100 n
b1100 2"
b1100 ="
b1100 U"
b11 $
1!
#175
0!
#200
b11111111111111111111111110110101 `
b11111111111111111111111110110101 e
b11111111111111111111111110110101 >"
b111000 -
b111000 t
b111000 J"
b111000 b"
b11111111111111111111111111100110 7
b11111111111111111111111111100110 b
b11111111111111111111111111100110 4"
b11111111111111111111111111101000 .
b11111111111111111111111111101000 u
b11111111111111111111111111101000 K"
b11111111111111111111111111101000 c"
b11100 /"
b11100 G"
b11100 a"
b11111111111111111111111111001111 O
b11111111111111111111111111001111 c
b11111111111111111111111111001111 v
b11111111111111111111111111001111 {
b11111111111111111111111111100110 N
b11111111111111111111111111100110 |
b11111111111111111111111111100110 #"
b11111111111111111111111111100110 3"
b11111111111111111111111111100110 ?"
1,"
b10 M
b10 y
b10 $"
b10 *"
b11111111111111111111111111101000 6
b11111111111111111111111111101000 w
b11111111111111111111111111101000 }
b11111111111111111111111111101000 6"
b11111111111111111111111111101000 _"
b1000000000010110000100011 )
b1000000000010110000100011 1"
b1000000000010110000100011 T"
b10100 5
b10100 ;"
b10100 <"
b1100 1
b1100 i
b1100 :"
b1100 >
b1100 j
b1100 W"
b1110010000000100000110011 =
b1110010000000100000110011 V"
b1110010000000100000110011 f"
b11010 C
b11010 ("
b11010 P"
b11111111111111111111111111100110 B
b11111111111111111111111111100110 ""
b11111111111111111111111111100110 Q"
b11111111111111111111111111100111 U
b11111111111111111111111111100111 r
b11111111111111111111111111100111 B"
b11111111111111111111111111001111 X
b11111111111111111111111111001111 s
b11111111111111111111111111001111 x
b11111111111111111111111111001111 ~
b11111111111111111111111111001111 A"
b11111111111111111111111111001111 X"
18
b10000 9
b10000 &"
b10000 ]"
b10000 ^"
b11111111111111111111111111101000 <
b11111111111111111111111111101000 8"
b11111111111111111111111111101000 ["
b10100 0
b10100 m
b10100 9"
b10000 /
b10000 n
b10000 2"
b10000 ="
b10000 U"
b100 $
1!
#225
0!
#250
b11111111111111111111111111101101 `
b11111111111111111111111111101101 e
b11111111111111111111111111101101 >"
b0 .
b0 u
b0 K"
b0 c"
b111000 7
b111000 b
b111000 4"
b110000 ,
b110000 k
b110000 d"
1^
b1 _
b1 p
b1 D"
1[
0Y
b11111111111111111111111111001111 -
b11111111111111111111111111001111 t
b11111111111111111111111111001111 J"
b11111111111111111111111111001111 b"
b11111111111111111111111111001111 6
b11111111111111111111111111001111 w
b11111111111111111111111111001111 }
b11111111111111111111111111001111 6"
b11111111111111111111111111001111 _"
1,"
b10 M
b10 y
b10 $"
b10 *"
b111000 N
b111000 |
b111000 #"
b111000 3"
b111000 ?"
b11111111111111111111111110110101 O
b11111111111111111111111110110101 c
b11111111111111111111111110110101 v
b11111111111111111111111110110101 {
b11000 +
b11000 I"
b11000 e"
b11000 g"
b10000 /"
b0 ."
b10000 G"
b0 F"
b11000 E"
b10 H"
b100011 o
b10000 a"
b0 `"
b1000001111011111000000010110011 )
b1000001111011111000000010110011 1"
b1000001111011111000000010110011 T"
b11000 5
b11000 ;"
b11000 <"
b11111111111111111111111111001111 <
b11111111111111111111111111001111 8"
b11111111111111111111111111001111 ["
b11111111111111111111111111100110 U
b11111111111111111111111111100110 r
b11111111111111111111111111100110 B"
b11111111111111111111111110110101 X
b11111111111111111111111110110101 s
b11111111111111111111111110110101 x
b11111111111111111111111110110101 ~
b11111111111111111111111110110101 A"
b11111111111111111111111110110101 X"
b11100 C
b11100 ("
b11100 P"
b111000 B
b111000 ""
b111000 Q"
b11111111111111111111111111101000 D
b11111111111111111111111111101000 z
b11111111111111111111111111101000 O"
b1000000 1
b1000000 i
b1000000 :"
b10000 >
b10000 j
b10000 W"
b1000000000010110000100011 =
b1000000000010110000100011 V"
b1000000000010110000100011 f"
b11000 0
b11000 m
b11000 9"
b10100 /
b10100 n
b10100 2"
b10100 ="
b10100 U"
b101 $
1!
#275
0!
#300
b11000 `
b11000 e
b11000 >"
b1001 a
b1001 d
b1001 h
b0 ,
b0 k
b0 d"
0^
b10 _
b10 p
b10 D"
0[
1Y
b111110 .
b111110 u
b111110 K"
b111110 c"
b111100 -
b111100 t
b111100 J"
b111100 b"
b0 +
b0 I"
b0 e"
b0 g"
b11110 /"
b11111 ."
b11110 G"
b11111 F"
b1 E"
b100000000 H"
b110011 o
b11110 a"
b11111 `"
b11000 7
b11000 b
b11000 4"
1-"
b10 L
b10 !"
b10 %"
b10 +"
0,"
b0 M
b0 y
b0 $"
b0 *"
b0 O
b0 c
b0 v
b0 {
b11111111111111111111111111101101 N
b11111111111111111111111111101101 |
b11111111111111111111111111101101 #"
b11111111111111111111111111101101 3"
b11111111111111111111111111101101 ?"
b11111111111111111111111110110101 6
b11111111111111111111111110110101 w
b11111111111111111111111110110101 }
b11111111111111111111111110110101 6"
b11111111111111111111111110110101 _"
b1111000001000000100110011 )
b1111000001000000100110011 1"
b1111000001000000100110011 T"
b11100 5
b11100 ;"
b11100 <"
b10100 1
b10100 i
b10100 :"
b10100 >
b10100 j
b10100 W"
b1000001111011111000000010110011 =
b1000001111011111000000010110011 V"
b1000001111011111000000010110011 f"
1J
b1 K
b1 g
b1 L"
1H
0A
b10000 C
b10000 ("
b10000 P"
b0 E
b0 )"
b0 N"
b11000 F
b11000 0"
b11000 @"
b11000 M"
b10 ?
b10 f
b10 S"
b11000 @
b11000 5"
b11000 R"
b11111111111111111111111111001111 B
b11111111111111111111111111001111 ""
b11111111111111111111111111001111 Q"
b0 D
b0 z
b0 O"
b111000 U
b111000 r
b111000 B"
b11111111111111111111111111101101 X
b11111111111111111111111111101101 s
b11111111111111111111111111101101 x
b11111111111111111111111111101101 ~
b11111111111111111111111111101101 A"
b11111111111111111111111111101101 X"
b11111111111111111111111110110101 <
b11111111111111111111111110110101 8"
b11111111111111111111111110110101 ["
b11100 0
b11100 m
b11100 9"
b11000 /
b11000 n
b11000 2"
b11000 ="
b11000 U"
b110 $
1!
#325
0!
#350
b10 `
b10 e
b10 >"
b100 a
b100 d
b100 h
b111100 7
b111100 b
b111100 4"
b0 .
b0 u
b0 K"
b0 c"
b11111111111111111111111111101101 6
b11111111111111111111111111101101 w
b11111111111111111111111111101101 }
b11111111111111111111111111101101 6"
b11111111111111111111111111101101 _"
0-"
b0 L
b0 !"
b0 %"
b0 +"
b111100 N
b111100 |
b111100 #"
b111100 3"
b111100 ?"
b111110 O
b111110 c
b111110 v
b111110 {
b1 ."
b1 F"
b10 E"
b0 H"
b1 `"
b1000000001000010101000110010011 )
b1000000001000010101000110010011 1"
b1000000001000010101000110010011 T"
b100000 5
b100000 ;"
b100000 <"
b11111111111111111111111111101101 <
b11111111111111111111111111101101 8"
b11111111111111111111111111101101 ["
1V
0R
b11000 S
b11000 '"
b11000 C"
b11000 Z"
b11111111111111111111111111101101 U
b11111111111111111111111111101101 r
b11111111111111111111111111101101 B"
b11000 X
b11000 s
b11000 x
b11000 ~
b11000 A"
b11000 X"
0J
b10 K
b10 g
b10 L"
0H
1A
b11110 C
b11110 ("
b11110 P"
b11111 E
b11111 )"
b11111 N"
b1 F
b1 0"
b1 @"
b1 M"
b100000000 ?
b100000000 f
b100000000 S"
b0 @
b0 5"
b0 R"
b111100 B
b111100 ""
b111100 Q"
b111110 D
b111110 z
b111110 O"
b11000 1
b11000 i
b11000 :"
b11000 >
b11000 j
b11000 W"
b1111000001000000100110011 =
b1111000001000000100110011 V"
b1111000001000000100110011 f"
b100000 0
b100000 m
b100000 9"
b11100 /
b11100 n
b11100 2"
b11100 ="
b11100 U"
b111 $
1!
#375
0!
#400
b111110 `
b111110 e
b111110 >"
b11 a
b11 d
b11 h
1Q
b100000000100 ,
b100000000100 k
b100000000100 d"
1^
b0 _
b0 p
b0 D"
b0 -
b0 t
b0 J"
b0 b"
b10000000010 +
b10000000010 I"
b10000000010 e"
b10000000010 g"
b10 /"
b10 ."
b10 G"
b10 F"
b11 E"
b100000101 H"
b10011 o
b10 a"
b10 `"
b10 O
b10 c
b10 v
b10 {
1,"
b10 M
b10 y
b10 $"
b10 *"
b11000 6
b11000 w
b11000 }
b11000 6"
b11000 _"
b1000000000011010010011 )
b1000000000011010010011 1"
b1000000000011010010011 T"
b100100 5
b100100 ;"
b100100 <"
b100000100000 1
b100000100000 i
b100000100000 :"
b11100 >
b11100 j
b11100 W"
b1000000001000010101000110010011 =
b1000000001000010101000110010011 V"
b1000000001000010101000110010011 f"
b1 E
b1 )"
b1 N"
b10 F
b10 0"
b10 @"
b10 M"
b0 ?
b0 f
b0 S"
b0 D
b0 z
b0 O"
0V
1R
b1 S
b1 '"
b1 C"
b1 Z"
b111100 U
b111100 r
b111100 B"
b10 X
b10 s
b10 x
b10 ~
b10 A"
b10 X"
08
b11000 9
b11000 &"
b11000 ]"
b11000 ^"
b11000 <
b11000 8"
b11000 ["
b100100 0
b100100 m
b100100 9"
b100000 /
b100000 n
b100000 2"
b100000 ="
b100000 U"
b1000 $
1!
#425
0!
#450
b1111 `
b1111 e
b1111 >"
b111 a
b111 d
b111 h
b100 ,
b100 k
b100 d"
b10 6
b10 w
b10 }
b10 6"
b10 _"
b111110 O
b111110 c
b111110 v
b111110 {
b10000000010 7
b10000000010 b
b10000000010 4"
1-"
b10 L
b10 !"
b10 %"
b10 +"
1,"
b10 M
b10 y
b10 $"
b10 *"
b111110 N
b111110 |
b111110 #"
b111110 3"
b111110 ?"
b10 +
b10 I"
b10 e"
b10 g"
b0 ."
b0 F"
b1101 E"
b0 H"
b0 `"
b110111110001011110110011 )
b110111110001011110110011 1"
b110111110001011110110011 T"
b101000 5
b101000 ;"
b101000 <"
18
b1 9
b1 &"
b1 ]"
b1 ^"
b10 <
b10 8"
b10 ["
b10 S
b10 '"
b10 C"
b10 Z"
b111110 X
b111110 s
b111110 x
b111110 ~
b111110 A"
b111110 X"
1J
b0 K
b0 g
b0 L"
b10 C
b10 ("
b10 P"
b10 E
b10 )"
b10 N"
b11 F
b11 0"
b11 @"
b11 M"
b100000101 ?
b100000101 f
b100000101 S"
b10000000010 @
b10000000010 5"
b10000000010 R"
b0 B
b0 ""
b0 Q"
b100100 1
b100100 i
b100100 :"
b100000 >
b100000 j
b100000 W"
b1000000000011010010011 =
b1000000000011010010011 V"
b1000000000011010010011 f"
b101000 0
b101000 m
b101000 9"
b100100 /
b100100 n
b100100 2"
b100100 ="
b100100 U"
b1001 $
1!
#475
0!
#500
b10 `
b10 e
b10 >"
b110 a
b110 d
b110 h
0Q
b0 ,
b0 k
b0 d"
0^
b10 _
b10 p
b10 D"
b111100 .
b111100 u
b111100 K"
b111100 c"
b0 -
b0 t
b0 J"
b0 b"
b0 +
b0 I"
b0 e"
b0 g"
b1101 /"
b11110 ."
b1101 G"
b11110 F"
b1111 E"
b1 H"
b110011 o
b1101 a"
b11110 `"
b10 7
b10 b
b10 4"
b0 O
b0 c
b0 v
b0 {
0-"
0,"
b1 L
b1 !"
b1 %"
b1 +"
b0 M
b0 y
b0 $"
b0 *"
b111110 6
b111110 w
b111110 }
b111110 6"
b111110 _"
b1100000010101000100011 )
b1100000010101000100011 1"
b1100000010101000100011 T"
b101100 5
b101100 ;"
b101100 <"
b100100 1
b100100 i
b100100 :"
b100100 >
b100100 j
b100100 W"
b110111110001011110110011 =
b110111110001011110110011 V"
b110111110001011110110011 f"
b0 E
b0 )"
b0 N"
b1101 F
b1101 0"
b1101 @"
b1101 M"
b0 ?
b0 f
b0 S"
b10 @
b10 5"
b10 R"
b11 S
b11 '"
b11 C"
b11 Z"
b111110 U
b111110 r
b111110 B"
b1111 X
b1111 s
b1111 x
b1111 ~
b1111 A"
b1111 X"
b10 9
b10 &"
b10 ]"
b10 ^"
b111110 <
b111110 8"
b111110 ["
b101100 0
b101100 m
b101100 9"
b101000 /
b101000 n
b101000 2"
b101000 ="
b101000 U"
b1010 $
1!
#525
0!
#550
b11110000 `
b11110000 e
b11110000 >"
b10 a
b10 d
b10 h
b1111 -
b1111 t
b1111 J"
b1111 b"
0Q
b101000 ,
b101000 k
b101000 d"
1^
b1 _
b1 p
b1 D"
1[
0Y
b0 .
b0 u
b0 K"
b0 c"
b1111 6
b1111 w
b1111 }
b1111 6"
b1111 _"
b10 N
b10 |
b10 #"
b10 3"
b10 ?"
1-"
b10 L
b10 !"
b10 %"
b10 +"
b10 7
b10 b
b10 4"
b111100 O
b111100 c
b111100 v
b111100 {
b10100 +
b10100 I"
b10100 e"
b10100 g"
b11 /"
b0 ."
b11 G"
b0 F"
b10100 E"
b10 H"
b100011 o
b11 a"
b0 `"
b10101000000011 )
b10101000000011 1"
b10101000000011 T"
b110000 5
b110000 ;"
b110000 <"
b11 9
b11 &"
b11 ]"
b11 ^"
b1111 <
b1111 8"
b1111 ["
b1101 S
b1101 '"
b1101 C"
b1101 Z"
b10 X
b10 s
b10 x
b10 ~
b10 A"
b10 X"
0J
b10 K
b10 g
b10 L"
b1101 C
b1101 ("
b1101 P"
b11110 E
b11110 )"
b11110 N"
b1111 F
b1111 0"
b1111 @"
b1111 M"
b1 ?
b1 f
b1 S"
b0 @
b0 5"
b0 R"
b111100 D
b111100 z
b111100 O"
b1010000 1
b1010000 i
b1010000 :"
b101000 >
b101000 j
b101000 W"
b1100000010101000100011 =
b1100000010101000100011 V"
b1100000010101000100011 f"
b110000 0
b110000 m
b110000 9"
b101100 /
b101100 n
b101100 2"
b101100 ="
b101100 U"
b1011 $
1!
#575
0!
