Project 1/CA2021_project1/CA2021_project1/codes/CPU.vcd
$date
	Tue May 25 00:07:00 2021
$end
$version
	Icarus Verilog
$end
$timescale
	1s
$end
$scope module TestBench $end
$var reg 1 ! Clk $end
$var reg 1 " Reset $end
$var reg 1 # Start $end
$var integer 32 $ counter [31:0] $end
$var integer 32 % flush [31:0] $end
$var integer 32 & i [31:0] $end
$var integer 32 ' outfile [31:0] $end
$var integer 32 ( stall [31:0] $end
$scope module CPU $end
$var wire 1 ! clk_i $end
$var wire 1 " rst_i $end
$var wire 1 # start_i $end
$var wire 32 ) instr [31:0] $end
$var wire 1 * Stall $end
$var wire 32 + SignExtend_Res [31:0] $end
$var wire 32 , ShiftLeft_Res [31:0] $end
$var wire 32 - RS2Data [31:0] $end
$var wire 32 . RS1Data [31:0] $end
$var wire 32 / PC_now [31:0] $end
$var wire 32 0 PC_four [31:0] $end
$var wire 32 1 PC_branch [31:0] $end
$var wire 1 2 PCWrite $end
$var wire 1 3 NoOp $end
$var wire 32 4 MemRead_Res [31:0] $end
$var wire 32 5 MUX_PC_Res [31:0] $end
$var wire 32 6 MUX_MemtoReg_Res [31:0] $end
$var wire 32 7 MUX_ALUSrc_Res [31:0] $end
$var wire 1 8 MEMWB_RegWrite $end
$var wire 5 9 MEMWB_RDaddr [4:0] $end
$var wire 1 : MEMWB_MemtoReg $end
$var wire 32 ; MEMWB_MemRead_Data [31:0] $end
$var wire 32 < MEMWB_ALU_Res [31:0] $end
$var wire 32 = IFID_instr [31:0] $end
$var wire 32 > IFID_PC [31:0] $end
$var wire 10 ? IDEX_funct [9:0] $end
$var wire 32 @ IDEX_SignExtend_Res [31:0] $end
$var wire 1 A IDEX_RegWrite $end
$var wire 32 B IDEX_RS2Data [31:0] $end
$var wire 5 C IDEX_RS2Addr [4:0] $end
$var wire 32 D IDEX_RS1Data [31:0] $end
$var wire 5 E IDEX_RS1Addr [4:0] $end
$var wire 5 F IDEX_RDaddr [4:0] $end
$var wire 1 G IDEX_MemtoReg $end
$var wire 1 H IDEX_MemWrite $end
$var wire 1 I IDEX_MemRead $end
$var wire 1 J IDEX_ALUSrc $end
$var wire 2 K IDEX_ALUOp [1:0] $end
$var wire 2 L Forward_B [1:0] $end
$var wire 2 M Forward_A [1:0] $end
$var wire 32 N ForwardB_MUX_Res [31:0] $end
$var wire 32 O ForwardA_MUX_Res [31:0] $end
$var wire 1 P Flush $end
$var wire 1 Q Equal_Res $end
$var wire 1 R EXMEM_RegWrite $end
$var wire 5 S EXMEM_RDaddr [4:0] $end
$var wire 1 T EXMEM_MemtoReg $end
$var wire 32 U EXMEM_MemWrite_Data [31:0] $end
$var wire 1 V EXMEM_MemWrite $end
$var wire 1 W EXMEM_MemRead $end
$var wire 32 X EXMEM_ALU_Res [31:0] $end
$var wire 1 Y Ctrl_RegWrite $end
$var wire 1 Z Ctrl_MemtoReg $end
$var wire 1 [ Ctrl_MemWrite $end
$var wire 1 \ Ctrl_MemRead $end
$var wire 1 ] Ctrl_Branch $end
$var wire 1 ^ Ctrl_ALUSrc $end
$var wire 2 _ Ctrl_ALUOp [1:0] $end
$var wire 32 ` ALU_Res [31:0] $end
$var wire 4 a ALUCtrl [3:0] $end
$scope module ALU $end
$var wire 32 b data2_i [31:0] $end
$var wire 32 c data1_i [31:0] $end
$var wire 4 d ALUCtrl_i [3:0] $end
$var reg 32 e data_o [31:0] $end
$upscope $end
$scope module ALU_Control $end
$var wire 10 f funct_i [9:0] $end
$var wire 2 g ALUOp_i [1:0] $end
$var reg 4 h ALUCtrl_o [3:0] $end
$upscope $end
$scope module Add_Branch $end
$var wire 32 i data_o [31:0] $end
$var wire 32 j data2_in [31:0] $end
$var wire 32 k data1_in [31:0] $end
$upscope $end
$scope module Add_PC $end
$var wire 32 l data2_in [31:0] $end
$var wire 32 m data_o [31:0] $end
$var wire 32 n data1_in [31:0] $end
$upscope $end
$scope module And $end
$var wire 1 P data_o $end
$var wire 1 Q data2_in $end
$var wire 1 ] data1_in $end
$upscope $end
$scope module Control $end
$var wire 7 o Op_i [6:0] $end
$var wire 1 3 NoOp_i $end
$var reg 2 p ALUOp_o [1:0] $end
$var reg 1 ^ ALUSrc_o $end
$var reg 1 ] Branch_o $end
$var reg 1 \ MemRead_o $end
$var reg 1 [ MemWrite_o $end
$var reg 1 Z MemtoReg_o $end
$var reg 1 Y RegWrite_o $end
$upscope $end
$scope module Data_Memory $end
$var wire 1 ! clk_i $end
$var wire 32 q data_o [31:0] $end
$var wire 32 r data_i [31:0] $end
$var wire 32 s addr_i [31:0] $end
$var wire 1 V MemWrite_i $end
$var wire 1 W MemRead_i $end
$upscope $end
$scope module Equal $end
$var wire 1 Q data_o $end
$var wire 32 t data2_in [31:0] $end
$var wire 32 u data1_in [31:0] $end
$upscope $end
$scope module ForwardA_MUX $end
$var wire 32 v MUX_Res_o [31:0] $end
$var wire 32 w WB_WriteData_in [31:0] $end
$var wire 32 x MEM_ALU_Result_in [31:0] $end
$var wire 2 y Forward_in [1:0] $end
$var wire 32 z EXRS_Data_in [31:0] $end
$var reg 32 { MUX_Res [31:0] $end
$upscope $end
$scope module ForwardB_MUX $end
$var wire 32 | MUX_Res_o [31:0] $end
$var wire 32 } WB_WriteData_in [31:0] $end
$var wire 32 ~ MEM_ALU_Result_in [31:0] $end
$var wire 2 !" Forward_in [1:0] $end
$var wire 32 "" EXRS_Data_in [31:0] $end
$var reg 32 #" MUX_Res [31:0] $end
$upscope $end
$scope module Forwarding_Unit $end
$var wire 2 $" Forward_A_o [1:0] $end
$var wire 2 %" Forward_B_o [1:0] $end
$var wire 1 8 WB_RegWrite_i $end
$var wire 5 &" WB_Rd_i [4:0] $end
$var wire 1 R MEM_RegWrite_i $end
$var wire 5 '" MEM_Rd_i [4:0] $end
$var wire 5 (" EX_RS2_i [4:0] $end
$var wire 5 )" EX_RS1_i [4:0] $end
$var reg 2 *" Forward_A_res [1:0] $end
$var reg 2 +" Forward_B_res [1:0] $end
$var reg 1 ," flag_A $end
$var reg 1 -" flag_B $end
$upscope $end
$scope module Hazard_Detection $end
$var wire 5 ." RS1addr_i [4:0] $end
$var wire 5 /" RS2addr_i [4:0] $end
$var wire 5 0" RdAddr_i [4:0] $end
$var wire 1 I MemRead_i $end
$var reg 1 3 NoOp_o $end
$var reg 1 2 PCWrite_o $end
$var reg 1 * Stall_o $end
$upscope $end
$scope module Instruction_Memory $end
$var wire 32 1" instr_o [31:0] $end
$var wire 32 2" addr_i [31:0] $end
$upscope $end
$scope module MUX_ALUSrc $end
$var wire 32 3" data1_i [31:0] $end
$var wire 1 J select_i $end
$var wire 32 4" data_o [31:0] $end
$var wire 32 5" data2_i [31:0] $end
$upscope $end
$scope module MUX_MemtoReg $end
$var wire 1 : select_i $end
$var wire 32 6" data_o [31:0] $end
$var wire 32 7" data2_i [31:0] $end
$var wire 32 8" data1_i [31:0] $end
$upscope $end
$scope module MUX_PC $end
$var wire 32 9" data1_i [31:0] $end
$var wire 32 :" data2_i [31:0] $end
$var wire 1 P select_i $end
$var wire 32 ;" data_o [31:0] $end
$upscope $end
$scope module PC $end
$var wire 1 2 PCWrite_i $end
$var wire 1 ! clk_i $end
$var wire 32 <" pc_i [31:0] $end
$var wire 1 " rst_i $end
$var wire 1 # start_i $end
$var reg 32 =" pc_o [31:0] $end
$upscope $end
$scope module Register_EXMEM $end
$var wire 32 >" ALU_Res_i [31:0] $end
$var wire 32 ?" MemWrite_Data_i [31:0] $end
$var wire 1 ! clk_i $end
$var wire 1 # start_i $end
$var wire 1 A RegWrite_i $end
$var wire 5 @" RDaddr_i [4:0] $end
$var wire 1 G MemtoReg_i $end
$var wire 1 H MemWrite_i $end
$var wire 1 I MemRead_i $end
$var reg 32 A" ALU_Res_o [31:0] $end
$var reg 1 W MemRead_o $end
$var reg 32 B" MemWrite_Data_o [31:0] $end
$var reg 1 V MemWrite_o $end
$var reg 1 T MemtoReg_o $end
$var reg 5 C" RDaddr_o [4:0] $end
$var reg 1 R RegWrite_o $end
$upscope $end
$scope module Register_IDEX $end
$var wire 2 D" ALUOp_i [1:0] $end
$var wire 1 ^ ALUSrc_i $end
$var wire 1 \ MemRead_i $end
$var wire 1 [ MemWrite_i $end
$var wire 1 Z MemtoReg_i $end
$var wire 5 E" RDaddr_i [4:0] $end
$var wire 5 F" RS1Addr_i [4:0] $end
$var wire 5 G" RS2Addr_i [4:0] $end
$var wire 1 Y RegWrite_i $end
$var wire 1 ! clk_i $end
$var wire 10 H" funct_i [9:0] $end
$var wire 1 # start_i $end
$var wire 32 I" SignExtend_Res_i [31:0] $end
$var wire 32 J" RS2Data_i [31:0] $end
$var wire 32 K" RS1Data_i [31:0] $end
$var reg 2 L" ALUOp_o [1:0] $end
$var reg 1 J ALUSrc_o $end
$var reg 1 I MemRead_o $end
$var reg 1 H MemWrite_o $end
$var reg 1 G MemtoReg_o $end
$var reg 5 M" RDaddr_o [4:0] $end
$var reg 5 N" RS1Addr_o [4:0] $end
$var reg 32 O" RS1Data_o [31:0] $end
$var reg 5 P" RS2Addr_o [4:0] $end
$var reg 32 Q" RS2Data_o [31:0] $end
$var reg 1 A RegWrite_o $end
$var reg 32 R" SignExtend_Res_o [31:0] $end
$var reg 10 S" funct_o [9:0] $end
$upscope $end
$scope module Register_IFID $end
$var wire 1 P Flush_i $end
$var wire 1 * Stall_i $end
$var wire 1 ! clk_i $end
$var wire 32 T" instr_i [31:0] $end
$var wire 32 U" pc_i [31:0] $end
$var wire 1 # start_i $end
$var reg 32 V" instr_o [31:0] $end
$var reg 32 W" pc_o [31:0] $end
$upscope $end
$scope module Register_MEMWB $end
$var wire 32 X" MemAddr_i [31:0] $end
$var wire 32 Y" MemRead_Data_i [31:0] $end
$var wire 1 T MemtoReg_i $end
$var wire 5 Z" RDaddr_i [4:0] $end
$var wire 1 R RegWrite_i $end
$var wire 1 ! clk_i $end
$var wire 1 # start_i $end
$var reg 32 [" MemAddr_o [31:0] $end
$var reg 32 \" MemRead_Data_o [31:0] $end
$var reg 1 : MemtoReg_o $end
$var reg 5 ]" RDaddr_o [4:0] $end
$var reg 1 8 RegWrite_o $end
$upscope $end
$scope module Registers $end
$var wire 5 ^" RDaddr_i [4:0] $end
$var wire 32 _" RDdata_i [31:0] $end
$var wire 5 `" RS1addr_i [4:0] $end
$var wire 5 a" RS2addr_i [4:0] $end
$var wire 1 8 RegWrite_i $end
$var wire 1 ! clk_i $end
$var wire 32 b" RS2data_o [31:0] $end
$var wire 32 c" RS1data_o [31:0] $end
$upscope $end
$scope module ShiftLeft $end
$var wire 32 d" data_o [31:0] $end
$var wire 32 e" data_i [31:0] $end
$upscope $end
$scope module Sign_Extend $end
$var wire 32 f" data_i [31:0] $end
$var reg 32 g" data_o [31:0] $end
$upscope $end
$upscope $end
$upscope $end
$enddefinitions $end
#0
$dumpvars
b0 g"
b0 f"
b0 e"
b0 d"
b0 c"
b0 b"
b0 a"
b0 `"
b0 _"
b0 ^"
b0 ]"
b0 \"
b0 ["
b0 Z"
b0 Y"
b0 X"
b0 W"
b0 V"
b0 U"
b11000000000010100010011 T"
b0 S"
b0 R"
b0 Q"
bx P"
b0 O"
bx N"
b0 M"
b0 L"
b0 K"
b0 J"
b0 I"
b0 H"
b0 G"
b0 F"
b0 E"
b11 D"
b0 C"
b0 B"
b0 A"
b0 @"
b0 ?"
b0 >"
b0 ="
b100 <"
b100 ;"
b0 :"
b100 9"
b0 8"
b0 7"
b0 6"
b0 5"
b0 4"
b0 3"
b0 2"
b11000000000010100010011 1"
b0 0"
b0 /"
b0 ."
0-"
0,"
b0 +"
b0 *"
bx )"
bx ("
b0 '"
b0 &"
b0 %"
b0 $"
b0 #"
b0 ""
b0 !"
b0 ~
b0 }
b0 |
b0 {
b0 z
b0 y
b0 x
b0 w
b0 v
b0 u
b0 t
b0 s
b0 r
b0 q
b11 p
b0 o
b0 n
b100 m
b100 l
b0 k
b0 j
b0 i
b110 h
b0 g
b0 f
b0 e
b110 d
b0 c
b0 b
b110 a
b0 `
b11 _
0^
0]
0\
0[
0Z
0Y
b0 X
0W
0V
b0 U
0T
b0 S
0R
1Q
0P
b0 O
b0 N
b0 M
b0 L
b0 K
0J
0I
0H
0G
b0 F
bx E
b0 D
bx C
b0 B
0A
b0 @
b0 ?
b0 >
b0 =
b0 <
b0 ;
0:
b0 9
08
b0 7
b0 6
b100 5
b0 4
03
12
b0 1
b100 0
b0 /
b0 .
b0 -
b0 ,
b0 +
0*
b11000000000010100010011 )
b0 (
b11 '
b100000 &
b0 %
b0 $
0#
1"
1!
$end
#12
1#
0"
#25
0!
#50
b1010 a
b1010 d
b1010 h
b1100 1
b1100 i
b1100 :"
b1100 ,
b1100 k
b1100 d"
1^
b0 _
b0 p
b0 D"
1Y
b110 +
b110 I"
b110 e"
b110 g"
b110 /"
b110 G"
b1010 E"
b10011 o
b110 a"
b100000000010110010011 )
b100000000010110010011 1"
b100000000010110010011 T"
b1000 5
b1000 ;"
b1000 <"
b11 K
b11 g
b11 L"
b0 C
b0 ("
b0 P"
b0 E
b0 )"
b0 N"
b11000000000010100010011 =
b11000000000010100010011 V"
b11000000000010100010011 f"
b1000 0
b1000 m
b1000 9"
b100 /
b100 n
b100 2"
b100 ="
b100 U"
b1 $
1!
#75
0!
#100
b110 `
b110 e
b110 >"
b110 a
b110 d
b110 h
b10 ,
b10 k
b10 d"
b1 +
b1 I"
b1 e"
b1 g"
b1 /"
b1 G"
b1011 E"
b1 a"
b110 7
b110 b
b110 4"
b100000000010010010011 )
b100000000010010010011 1"
b100000000010010010011 T"
b1100 5
b1100 ;"
b1100 <"
b110 1
b110 i
b110 :"
b100 >
b100 j
b100 W"
b100000000010110010011 =
b100000000010110010011 V"
b100000000010110010011 f"
1J
b0 K
b0 g
b0 L"
1A
b110 C
b110 ("
b110 P"
b1010 F
b1010 0"
b1010 @"
b1010 M"
b110 @
b110 5"
b110 R"
b1100 0
b1100 m
b1100 9"
b1000 /
b1000 n
b1000 2"
b1000 ="
b1000 U"
b10 $
1!
#125
0!
#150
b1 `
b1 e
b1 >"
b1 7
b1 b
b1 4"
b1001 E"
b10101101001000010010110011 )
b10101101001000010010110011 1"
b10101101001000010010110011 T"
b10000 5
b10000 ;"
b10000 <"
1R
b1010 S
b1010 '"
b1010 C"
b1010 Z"
b110 X
b110 s
b110 x
b110 ~
b110 A"
b110 X"
b1 C
b1 ("
b1 P"
b1011 F
b1011 0"
b1011 @"
b1011 M"
b1 @
b1 5"
b1 R"
b1010 1
b1010 i
b1010 :"
b1000 >
b1000 j
b1000 W"
b100000000010010010011 =
b100000000010010010011 V"
b100000000010010010011 f"
b10000 0
b10000 m
b10000 9"
b1100 /
b1100 n
b1100 2"
b1100 ="
b1100 U"
b11 $
1!
#175
0!
#200
b0 ,
b0 k
b0 d"
0^
b10 _
b10 p
b10 D"
b0 +
b0 I"
b0 e"
b0 g"
b1011 /"
b1001 ."
b1011 G"
b1001 F"
b1000 H"
b110011 o
b1011 a"
b1001 `"
b110 6
b110 w
b110 }
b110 6"
b110 _"
b101011000010110010011 )
b101011000010110010011 1"
b101011000010110010011 T"
b10100 5
b10100 ;"
b10100 <"
b1100 1
b1100 i
b1100 :"
b1100 >
b1100 j
b1100 W"
b10101101001000010010110011 =
b10101101001000010010110011 V"
b10101101001000010010110011 f"
b1001 F
b1001 0"
b1001 @"
b1001 M"
b1011 S
b1011 '"
b1011 C"
b1011 Z"
b1 X
b1 s
b1 x
b1 ~
b1 A"
b1 X"
18
b1010 9
b1010 &"
b1010 ]"
b1010 ^"
b110 <
b110 8"
b110 ["
b10100 0
b10100 m
b10100 9"
b10000 /
b10000 n
b10000 2"
b10000 ="
b10000 U"
b100 $
1!
#225
0!
#250
b1 `
b1 e
b1 >"
b101 a
b101 d
b101 h
0Q
b1 .
b1 u
b1 K"
b1 c"
b1 N
b1 |
b1 #"
b1 3"
b1 ?"
b1 O
b1 c
b1 v
b1 {
b10 ,
b10 k
b10 d"
1^
b0 _
b0 p
b0 D"
b1 6
b1 w
b1 }
b1 6"
b1 _"
b1 L
b1 !"
b1 %"
b1 +"
1,"
b10 M
b10 y
b10 $"
b10 *"
b1 7
b1 b
b1 4"
b1 +
b1 I"
b1 e"
b1 g"
b1 /"
b1011 ."
b1 G"
b1011 F"
b1011 E"
b0 H"
b10011 o
b1 a"
b1011 `"
b1011000111000010011 )
b1011000111000010011 1"
b1011000111000010011 T"
b11000 5
b11000 ;"
b11000 <"
b1011 9
b1011 &"
b1011 ]"
b1011 ^"
b1 <
b1 8"
b1 ["
b1001 S
b1001 '"
b1001 C"
b1001 Z"
0J
b10 K
b10 g
b10 L"
b1011 C
b1011 ("
b1011 P"
b1001 E
b1001 )"
b1001 N"
b1000 ?
b1000 f
b1000 S"
b0 @
b0 5"
b0 R"
b10010 1
b10010 i
b10010 :"
b10000 >
b10000 j
b10000 W"
b101011000010110010011 =
b101011000010110010011 V"
b101011000010110010011 f"
b11000 0
b11000 m
b11000 9"
b10100 /
b10100 n
b10100 2"
b10100 ="
b10100 U"
b101 $
1!
#275
0!
#300
b10 `
b10 e
b10 >"
b110 a
b110 d
b110 h
b0 ,
b0 k
b0 d"
b0 N
b0 |
b0 #"
b0 3"
b0 ?"
b0 +
b0 I"
b0 e"
b0 g"
b0 /"
b0 G"
b11100 E"
b0 a"
0,"
b0 L
b0 !"
b0 %"
b0 +"
b0 M
b0 y
b0 $"
b0 *"
b11111111111101011000111010010011 )
b11111111111101011000111010010011 1"
b11111111111101011000111010010011 T"
b11100 5
b11100 ;"
b11100 <"
b10100 1
b10100 i
b10100 :"
b10100 >
b10100 j
b10100 W"
b1011000111000010011 =
b1011000111000010011 V"
b1011000111000010011 f"
1J
b0 K
b0 g
b0 L"
b1 C
b1 ("
b1 P"
b1011 E
b1011 )"
b1011 N"
b1011 F
b1011 0"
b1011 @"
b1011 M"
b0 ?
b0 f
b0 S"
b1 @
b1 5"
b1 R"
b1 D
b1 z
b1 O"
b1 U
b1 r
b1 B"
b1001 9
b1001 &"
b1001 ]"
b1001 ^"
b11100 0
b11100 m
b11100 9"
b11000 /
b11000 n
b11000 2"
b11000 ="
b11000 U"
b110 $
1!
#325
0!
#350
b11111111111111111111111111111110 ,
b11111111111111111111111111111110 k
b11111111111111111111111111111110 d"
b10 O
b10 c
b10 v
b10 {
1,"
b10 M
b10 y
b10 $"
b10 *"
b0 7
b0 b
b0 4"
b11111111111111111111111111111111 +
b11111111111111111111111111111111 I"
b11111111111111111111111111111111 e"
b11111111111111111111111111111111 g"
b11111 /"
b11111 G"
b11101 E"
b1111111000 H"
b11111 a"
b11111111111001011000111100010011 )
b11111111111001011000111100010011 1"
b11111111111001011000111100010011 T"
b100000 5
b100000 ;"
b100000 <"
b1011 S
b1011 '"
b1011 C"
b1011 Z"
b0 U
b0 r
b0 B"
b10 X
b10 s
b10 x
b10 ~
b10 A"
b10 X"
b0 C
b0 ("
b0 P"
b11100 F
b11100 0"
b11100 @"
b11100 M"
b0 @
b0 5"
b0 R"
b10110 1
b10110 i
b10110 :"
b11000 >
b11000 j
b11000 W"
b11111111111101011000111010010011 =
b11111111111101011000111010010011 V"
b11111111111101011000111010010011 f"
b100000 0
b100000 m
b100000 9"
b11100 /
b11100 n
b11100 2"
b11100 ="
b11100 U"
b111 $
1!
#375
0!
#400
b1 `
b1 e
b1 >"
b11111111111111111111111111111100 ,
b11111111111111111111111111111100 k
b11111111111111111111111111111100 d"
b10 .
b10 u
b10 K"
b10 c"
b11111111111111111111111111111110 +
b11111111111111111111111111111110 I"
b11111111111111111111111111111110 e"
b11111111111111111111111111111110 g"
b11110 /"
b11110 G"
b11110 E"
b11110 a"
b11111111111111111111111111111111 7
b11111111111111111111111111111111 b
b11111111111111111111111111111111 4"
0,"
b1 M
b1 y
b1 $"
b1 *"
b10 6
b10 w
b10 }
b10 6"
b10 _"
b101101010000010001100011 )
b101101010000010001100011 1"
b101101010000010001100011 T"
b100100 5
b100100 ;"
b100100 <"
b11000 1
b11000 i
b11000 :"
b11100 >
b11100 j
b11100 W"
b11111111111001011000111100010011 =
b11111111111001011000111100010011 V"
b11111111111001011000111100010011 f"
b11111 C
b11111 ("
b11111 P"
b11101 F
b11101 0"
b11101 @"
b11101 M"
b1111111000 ?
b1111111000 f
b1111111000 S"
b11111111111111111111111111111111 @
b11111111111111111111111111111111 5"
b11111111111111111111111111111111 R"
b11100 S
b11100 '"
b11100 C"
b11100 Z"
b1011 9
b1011 &"
b1011 ]"
b1011 ^"
b10 <
b10 8"
b10 ["
b100100 0
b100100 m
b100100 9"
b100000 /
b100000 n
b100000 2"
b100000 ="
b100000 U"
b1000 $
1!
#425
0!
#450
b0 `
b0 e
b0 >"
b110 .
b110 u
b110 K"
b110 c"
b1000 ,
b1000 k
b1000 d"
1]
0^
b11 _
b11 p
b11 D"
0Y
b10 -
b10 t
b10 J"
b10 b"
b0 M
b0 y
b0 $"
b0 *"
b11111111111111111111111111111110 7
b11111111111111111111111111111110 b
b11111111111111111111111111111110 4"
b100 +
b100 I"
b100 e"
b100 g"
b1011 /"
b1010 ."
b1011 G"
b1010 F"
b1000 E"
b0 H"
b1100011 o
b1011 a"
b1010 `"
b11111110000000000000010011100011 )
b11111110000000000000010011100011 1"
b11111110000000000000010011100011 T"
b101000 5
b101000 ;"
b101000 <"
b11100 9
b11100 &"
b11100 ]"
b11100 ^"
b11101 S
b11101 '"
b11101 C"
b11101 Z"
b1 X
b1 s
b1 x
b1 ~
b1 A"
b1 X"
b11110 C
b11110 ("
b11110 P"
b11110 F
b11110 0"
b11110 @"
b11110 M"
b11111111111111111111111111111110 @
b11111111111111111111111111111110 5"
b11111111111111111111111111111110 R"
b10 D
b10 z
b10 O"
b101000 1
b101000 i
b101000 :"
b100000 >
b100000 j
b100000 W"
b101101010000010001100011 =
b101101010000010001100011 V"
b101101010000010001100011 f"
b101000 0
b101000 m
b101000 9"
b100100 /
b100100 n
b100100 2"
b100100 ="
b100100 U"
b1001 $
1!
#475
0!
#500
b0 `
b0 e
b0 >"
b1010 a
b1010 d
b1010 h
1P
1Q
b11111111111111111111111111101000 ,
b11111111111111111111111111101000 k
b11111111111111111111111111101000 d"
b0 -
b0 t
b0 J"
b0 b"
b0 .
b0 u
b0 K"
b0 c"
b11111111111111111111111111110100 +
b11111111111111111111111111110100 I"
b11111111111111111111111111110100 e"
b11111111111111111111111111110100 g"
b0 /"
b0 ."
b0 G"
b0 F"
b1001 E"
b1111111000 H"
b0 a"
b0 `"
b10 7
b10 b
b10 4"
b110 O
b110 c
b110 v
b110 {
b10 N
b10 |
b10 #"
b10 3"
b10 ?"
b1 6
b1 w
b1 }
b1 6"
b1 _"
b100100000010001000100011 )
b100100000010001000100011 1"
b100100000010001000100011 T"
b1100 5
b1100 ;"
b1100 <"
b1100 1
b1100 i
b1100 :"
b100100 >
b100100 j
b100100 W"
b11111110000000000000010011100011 =
b11111110000000000000010011100011 V"
b11111110000000000000010011100011 f"
0J
b11 K
b11 g
b11 L"
0A
b1011 C
b1011 ("
b1011 P"
b1010 E
b1010 )"
b1010 N"
b1000 F
b1000 0"
b1000 @"
b1000 M"
b0 ?
b0 f
b0 S"
b100 @
b100 5"
b100 R"
b10 B
b10 ""
b10 Q"
b110 D
b110 z
b110 O"
b11110 S
b11110 '"
b11110 C"
b11110 Z"
b0 X
b0 s
b0 x
b0 ~
b0 A"
b0 X"
b11101 9
b11101 &"
b11101 ]"
b11101 ^"
b1 <
b1 8"
b1 ["
b101100 0
b101100 m
b101100 9"
b101000 /
b101000 n
b101000 2"
b101000 ="
b101000 U"
b1010 $
1!
#525
0!
#550
0P
b0 7
b0 b
b0 4"
b0 ,
b0 k
b0 d"
0]
b0 6
b0 w
b0 }
b0 6"
b0 _"
b0 N
b0 |
b0 #"
b0 3"
b0 ?"
b0 O
b0 c
b0 v
b0 {
b10000 5
b10000 ;"
b10000 <"
b0 +
b0 I"
b0 e"
b0 g"
b0 E"
b0 H"
b0 o
b10101101001000010010110011 )
b10101101001000010010110011 1"
b10101101001000010010110011 T"
b11110 9
b11110 &"
b11110 ]"
b11110 ^"
b0 <
b0 8"
b0 ["
0R
b1000 S
b1000 '"
b1000 C"
b1000 Z"
b10 U
b10 r
b10 B"
b0 C
b0 ("
b0 P"
b0 E
b0 )"
b0 N"
b1001 F
b1001 0"
b1001 @"
b1001 M"
b1111111000 ?
b1111111000 f
b1111111000 S"
b11111111111111111111111111110100 @
b11111111111111111111111111110100 5"
b11111111111111111111111111110100 R"
b0 B
b0 ""
b0 Q"
b0 D
b0 z
b0 O"
b0 1
b0 i
b0 :"
b0 >
b0 j
b0 W"
b0 =
b0 V"
b0 f"
b10000 0
b10000 m
b10000 9"
b1100 /
b1100 n
b1100 2"
b1100 ="
b1100 U"
b1011 $
b1 %
1!
#575
0!
#600
0Q
b10 _
b10 p
b10 D"
1Y
b10 -
b10 t
b10 J"
b10 b"
b1 .
b1 u
b1 K"
b1 c"
b1011 /"
b1001 ."
b1011 G"
b1001 F"
b1001 E"
b1000 H"
b110011 o
b1011 a"
b1001 `"
b101011000010110010011 )
b101011000010110010011 1"
b101011000010110010011 T"
b10100 5
b10100 ;"
b10100 <"
b1100 1
b1100 i
b1100 :"
b1100 >
b1100 j
b1100 W"
b10101101001000010010110011 =
b10101101001000010010110011 V"
b10101101001000010010110011 f"
b0 F
b0 0"
b0 @"
b0 M"
b0 ?
b0 f
b0 S"
b0 @
b0 5"
b0 R"
b1001 S
b1001 '"
b1001 C"
b1001 Z"
b0 U
b0 r
b0 B"
08
b1000 9
b1000 &"
b1000 ]"
b1000 ^"
b10100 0
b10100 m
b10100 9"
b10000 /
b10000 n
b10000 2"
b10000 ="
b10000 U"
b1100 $
1!
#625
0!
#650
b10 `
b10 e
b10 >"
b101 a
b101 d
b101 h
b10 7
b10 b
b10 4"
b10 ,
b10 k
b10 d"
1^
b0 _
b0 p
b0 D"
b0 -
b0 t
b0 J"
b0 b"
b10 .
b10 u
b10 K"
b10 c"
b10 N
b10 |
b10 #"
b10 3"
b10 ?"
b1 O
b1 c
b1 v
b1 {
b1 +
b1 I"
b1 e"
b1 g"
b1 /"
b1011 ."
b1 G"
b1011 F"
b1011 E"
b0 H"
b10011 o
b1 a"
b1011 `"
b1011000111000010011 )
b1011000111000010011 1"
b1011000111000010011 T"
b11000 5
b11000 ;"
b11000 <"
b1001 9
b1001 &"
b1001 ]"
b1001 ^"
b0 S
b0 '"
b0 C"
b0 Z"
b10 K
b10 g
b10 L"
1A
b1011 C
b1011 ("
b1011 P"
b1001 E
b1001 )"
b1001 N"
b1001 F
b1001 0"
b1001 @"
b1001 M"
b1000 ?
b1000 f
b1000 S"
b10 B
b10 ""
b10 Q"
b1 D
b1 z
b1 O"
b10010 1
b10010 i
b10010 :"
b10000 >
b10000 j
b10000 W"
b101011000010110010011 =
b101011000010110010011 V"
b101011000010110010011 f"
b11000 0
b11000 m
b11000 9"
b10100 /
b10100 n
b10100 2"
b10100 ="
b10100 U"
b1101 $
1!
#675
0!
#700
b11 `
b11 e
b11 >"
b110 a
b110 d
b110 h
b0 ,
b0 k
b0 d"
b0 +
b0 I"
b0 e"
b0 g"
b0 /"
b0 G"
b11100 E"
b0 a"
b1 7
b1 b
b1 4"
b10 O
b10 c
b10 v
b10 {
b0 N
b0 |
b0 #"
b0 3"
b0 ?"
b11111111111101011000111010010011 )
b11111111111101011000111010010011 1"
b11111111111101011000111010010011 T"
b11100 5
b11100 ;"
b11100 <"
b10100 1
b10100 i
b10100 :"
b10100 >
b10100 j
b10100 W"
b1011000111000010011 =
b1011000111000010011 V"
b1011000111000010011 f"
1J
b0 K
b0 g
b0 L"
b1 C
b1 ("
b1 P"
b1011 E
b1011 )"
b1011 N"
b1011 F
b1011 0"
b1011 @"
b1011 M"
b0 ?
b0 f
b0 S"
b1 @
b1 5"
b1 R"
b0 B
b0 ""
b0 Q"
b10 D
b10 z
b10 O"
1R
b1001 S
b1001 '"
b1001 C"
b1001 Z"
b10 U
b10 r
b10 B"
b10 X
b10 s
b10 x
b10 ~
b10 A"
b10 X"
b0 9
b0 &"
b0 ]"
b0 ^"
b11100 0
b11100 m
b11100 9"
b11000 /
b11000 n
b11000 2"
b11000 ="
b11000 U"
b1110 $
1!
#725
0!
#750
b11111111111111111111111111111110 ,
b11111111111111111111111111111110 k
b11111111111111111111111111111110 d"
b10 6
b10 w
b10 }
b10 6"
b10 _"
b11 O
b11 c
b11 v
b11 {
1,"
b10 M
b10 y
b10 $"
b10 *"
b0 7
b0 b
b0 4"
b11111111111111111111111111111111 +
b11111111111111111111111111111111 I"
b11111111111111111111111111111111 e"
b11111111111111111111111111111111 g"
b11111 /"
b11111 G"
b11101 E"
b1111111000 H"
b11111 a"
b11111111111001011000111100010011 )
b11111111111001011000111100010011 1"
b11111111111001011000111100010011 T"
b100000 5
b100000 ;"
b100000 <"
18
b1001 9
b1001 &"
b1001 ]"
b1001 ^"
b10 <
b10 8"
b10 ["
b1011 S
b1011 '"
b1011 C"
b1011 Z"
b0 U
b0 r
b0 B"
b11 X
b11 s
b11 x
b11 ~
b11 A"
b11 X"
b0 C
b0 ("
b0 P"
b11100 F
b11100 0"
b11100 @"
b11100 M"
b0 @
b0 5"
b0 R"
b10110 1
b10110 i
b10110 :"
b11000 >
b11000 j
b11000 W"
b11111111111101011000111010010011 =
b11111111111101011000111010010011 V"
b11111111111101011000111010010011 f"
b100000 0
b100000 m
b100000 9"
b11100 /
b11100 n
b11100 2"
b11100 ="
b11100 U"
b1111 $
1!
#775
0!
