Project 1/CA2021_project1/codes/CPU.vcd
$date
	Tue May 25 00:52:52 2021
$end
$version
	Icarus Verilog
$end
$timescale
	1s
$end
$scope module TestBench $end
$var reg 1 ! Clk $end
$var reg 1 " Reset $end
$var reg 1 # Start $end
$var integer 32 $ counter [31:0] $end
$var integer 32 % flush [31:0] $end
$var integer 32 & i [31:0] $end
$var integer 32 ' outfile [31:0] $end
$var integer 32 ( stall [31:0] $end
$scope module CPU $end
$var wire 1 ! clk_i $end
$var wire 1 " rst_i $end
$var wire 1 # start_i $end
$var wire 32 ) instr [31:0] $end
$var wire 1 * Stall $end
$var wire 32 + SignExtend_Res [31:0] $end
$var wire 32 , ShiftLeft_Res [31:0] $end
$var wire 32 - RS2Data [31:0] $end
$var wire 32 . RS1Data [31:0] $end
$var wire 32 / PC_now [31:0] $end
$var wire 32 0 PC_four [31:0] $end
$var wire 32 1 PC_branch [31:0] $end
$var wire 1 2 PCWrite $end
$var wire 1 3 NoOp $end
$var wire 32 4 MemRead_Res [31:0] $end
$var wire 32 5 MUX_PC_Res [31:0] $end
$var wire 32 6 MUX_MemtoReg_Res [31:0] $end
$var wire 32 7 MUX_ALUSrc_Res [31:0] $end
$var wire 1 8 MEMWB_RegWrite $end
$var wire 5 9 MEMWB_RDaddr [4:0] $end
$var wire 1 : MEMWB_MemtoReg $end
$var wire 32 ; MEMWB_MemRead_Data [31:0] $end
$var wire 32 < MEMWB_ALU_Res [31:0] $end
$var wire 32 = IFID_instr [31:0] $end
$var wire 32 > IFID_PC [31:0] $end
$var wire 10 ? IDEX_funct [9:0] $end
$var wire 32 @ IDEX_SignExtend_Res [31:0] $end
$var wire 1 A IDEX_RegWrite $end
$var wire 32 B IDEX_RS2Data [31:0] $end
$var wire 5 C IDEX_RS2Addr [4:0] $end
$var wire 32 D IDEX_RS1Data [31:0] $end
$var wire 5 E IDEX_RS1Addr [4:0] $end
$var wire 5 F IDEX_RDaddr [4:0] $end
$var wire 1 G IDEX_MemtoReg $end
$var wire 1 H IDEX_MemWrite $end
$var wire 1 I IDEX_MemRead $end
$var wire 1 J IDEX_ALUSrc $end
$var wire 2 K IDEX_ALUOp [1:0] $end
$var wire 2 L Forward_B [1:0] $end
$var wire 2 M Forward_A [1:0] $end
$var wire 32 N ForwardB_MUX_Res [31:0] $end
$var wire 32 O ForwardA_MUX_Res [31:0] $end
$var wire 1 P Flush $end
$var wire 1 Q Equal_Res $end
$var wire 1 R EXMEM_RegWrite $end
$var wire 5 S EXMEM_RDaddr [4:0] $end
$var wire 1 T EXMEM_MemtoReg $end
$var wire 32 U EXMEM_MemWrite_Data [31:0] $end
$var wire 1 V EXMEM_MemWrite $end
$var wire 1 W EXMEM_MemRead $end
$var wire 32 X EXMEM_ALU_Res [31:0] $end
$var wire 1 Y Ctrl_RegWrite $end
$var wire 1 Z Ctrl_MemtoReg $end
$var wire 1 [ Ctrl_MemWrite $end
$var wire 1 \ Ctrl_MemRead $end
$var wire 1 ] Ctrl_Branch $end
$var wire 1 ^ Ctrl_ALUSrc $end
$var wire 2 _ Ctrl_ALUOp [1:0] $end
$var wire 32 ` ALU_Res [31:0] $end
$var wire 4 a ALUCtrl [3:0] $end
$scope module ALU $end
$var wire 32 b data2_i [31:0] $end
$var wire 32 c data1_i [31:0] $end
$var wire 4 d ALUCtrl_i [3:0] $end
$var reg 32 e data_o [31:0] $end
$upscope $end
$scope module ALU_Control $end
$var wire 10 f funct_i [9:0] $end
$var wire 2 g ALUOp_i [1:0] $end
$var reg 4 h ALUCtrl_o [3:0] $end
$upscope $end
$scope module Add_Branch $end
$var wire 32 i data_o [31:0] $end
$var wire 32 j data2_in [31:0] $end
$var wire 32 k data1_in [31:0] $end
$upscope $end
$scope module Add_PC $end
$var wire 32 l data2_in [31:0] $end
$var wire 32 m data_o [31:0] $end
$var wire 32 n data1_in [31:0] $end
$upscope $end
$scope module And $end
$var wire 1 P data_o $end
$var wire 1 Q data2_in $end
$var wire 1 ] data1_in $end
$upscope $end
$scope module Control $end
$var wire 7 o Op_i [6:0] $end
$var wire 1 3 NoOp_i $end
$var reg 2 p ALUOp_o [1:0] $end
$var reg 1 ^ ALUSrc_o $end
$var reg 1 ] Branch_o $end
$var reg 1 \ MemRead_o $end
$var reg 1 [ MemWrite_o $end
$var reg 1 Z MemtoReg_o $end
$var reg 1 Y RegWrite_o $end
$upscope $end
$scope module Data_Memory $end
$var wire 1 ! clk_i $end
$var wire 32 q data_o [31:0] $end
$var wire 32 r data_i [31:0] $end
$var wire 32 s addr_i [31:0] $end
$var wire 1 V MemWrite_i $end
$var wire 1 W MemRead_i $end
$upscope $end
$scope module Equal $end
$var wire 1 Q data_o $end
$var wire 32 t data2_in [31:0] $end
$var wire 32 u data1_in [31:0] $end
$upscope $end
$scope module ForwardA_MUX $end
$var wire 32 v MUX_Res_o [31:0] $end
$var wire 32 w WB_WriteData_in [31:0] $end
$var wire 32 x MEM_ALU_Result_in [31:0] $end
$var wire 2 y Forward_in [1:0] $end
$var wire 32 z EXRS_Data_in [31:0] $end
$var reg 32 { MUX_Res [31:0] $end
$upscope $end
$scope module ForwardB_MUX $end
$var wire 32 | MUX_Res_o [31:0] $end
$var wire 32 } WB_WriteData_in [31:0] $end
$var wire 32 ~ MEM_ALU_Result_in [31:0] $end
$var wire 2 !" Forward_in [1:0] $end
$var wire 32 "" EXRS_Data_in [31:0] $end
$var reg 32 #" MUX_Res [31:0] $end
$upscope $end
$scope module Forwarding_Unit $end
$var wire 2 $" Forward_A_o [1:0] $end
$var wire 2 %" Forward_B_o [1:0] $end
$var wire 1 8 WB_RegWrite_i $end
$var wire 5 &" WB_Rd_i [4:0] $end
$var wire 1 R MEM_RegWrite_i $end
$var wire 5 '" MEM_Rd_i [4:0] $end
$var wire 5 (" EX_RS2_i [4:0] $end
$var wire 5 )" EX_RS1_i [4:0] $end
$var reg 2 *" Forward_A_res [1:0] $end
$var reg 2 +" Forward_B_res [1:0] $end
$var reg 1 ," flag_A $end
$var reg 1 -" flag_B $end
$upscope $end
$scope module Hazard_Detection $end
$var wire 5 ." RS1addr_i [4:0] $end
$var wire 5 /" RS2addr_i [4:0] $end
$var wire 5 0" RdAddr_i [4:0] $end
$var wire 1 I MemRead_i $end
$var reg 1 3 NoOp_o $end
$var reg 1 2 PCWrite_o $end
$var reg 1 * Stall_o $end
$upscope $end
$scope module Instruction_Memory $end
$var wire 32 1" instr_o [31:0] $end
$var wire 32 2" addr_i [31:0] $end
$upscope $end
$scope module MUX_ALUSrc $end
$var wire 32 3" data1_i [31:0] $end
$var wire 1 J select_i $end
$var wire 32 4" data_o [31:0] $end
$var wire 32 5" data2_i [31:0] $end
$upscope $end
$scope module MUX_MemtoReg $end
$var wire 1 : select_i $end
$var wire 32 6" data_o [31:0] $end
$var wire 32 7" data2_i [31:0] $end
$var wire 32 8" data1_i [31:0] $end
$upscope $end
$scope module MUX_PC $end
$var wire 32 9" data1_i [31:0] $end
$var wire 32 :" data2_i [31:0] $end
$var wire 1 P select_i $end
$var wire 32 ;" data_o [31:0] $end
$upscope $end
$scope module PC $end
$var wire 1 2 PCWrite_i $end
$var wire 1 ! clk_i $end
$var wire 32 <" pc_i [31:0] $end
$var wire 1 " rst_i $end
$var wire 1 # start_i $end
$var reg 32 =" pc_o [31:0] $end
$upscope $end
$scope module Register_EXMEM $end
$var wire 32 >" ALU_Res_i [31:0] $end
$var wire 32 ?" MemWrite_Data_i [31:0] $end
$var wire 1 ! clk_i $end
$var wire 1 # start_i $end
$var wire 1 A RegWrite_i $end
$var wire 5 @" RDaddr_i [4:0] $end
$var wire 1 G MemtoReg_i $end
$var wire 1 H MemWrite_i $end
$var wire 1 I MemRead_i $end
$var reg 32 A" ALU_Res_o [31:0] $end
$var reg 1 W MemRead_o $end
$var reg 32 B" MemWrite_Data_o [31:0] $end
$var reg 1 V MemWrite_o $end
$var reg 1 T MemtoReg_o $end
$var reg 5 C" RDaddr_o [4:0] $end
$var reg 1 R RegWrite_o $end
$upscope $end
$scope module Register_IDEX $end
$var wire 2 D" ALUOp_i [1:0] $end
$var wire 1 ^ ALUSrc_i $end
$var wire 1 \ MemRead_i $end
$var wire 1 [ MemWrite_i $end
$var wire 1 Z MemtoReg_i $end
$var wire 5 E" RDaddr_i [4:0] $end
$var wire 5 F" RS1Addr_i [4:0] $end
$var wire 5 G" RS2Addr_i [4:0] $end
$var wire 1 Y RegWrite_i $end
$var wire 1 ! clk_i $end
$var wire 10 H" funct_i [9:0] $end
$var wire 1 # start_i $end
$var wire 32 I" SignExtend_Res_i [31:0] $end
$var wire 32 J" RS2Data_i [31:0] $end
$var wire 32 K" RS1Data_i [31:0] $end
$var reg 2 L" ALUOp_o [1:0] $end
$var reg 1 J ALUSrc_o $end
$var reg 1 I MemRead_o $end
$var reg 1 H MemWrite_o $end
$var reg 1 G MemtoReg_o $end
$var reg 5 M" RDaddr_o [4:0] $end
$var reg 5 N" RS1Addr_o [4:0] $end
$var reg 32 O" RS1Data_o [31:0] $end
$var reg 5 P" RS2Addr_o [4:0] $end
$var reg 32 Q" RS2Data_o [31:0] $end
$var reg 1 A RegWrite_o $end
$var reg 32 R" SignExtend_Res_o [31:0] $end
$var reg 10 S" funct_o [9:0] $end
$upscope $end
$scope module Register_IFID $end
$var wire 1 P Flush_i $end
$var wire 1 * Stall_i $end
$var wire 1 ! clk_i $end
$var wire 32 T" instr_i [31:0] $end
$var wire 32 U" pc_i [31:0] $end
$var wire 1 # start_i $end
$var reg 32 V" instr_o [31:0] $end
$var reg 32 W" pc_o [31:0] $end
$upscope $end
$scope module Register_MEMWB $end
$var wire 32 X" MemAddr_i [31:0] $end
$var wire 32 Y" MemRead_Data_i [31:0] $end
$var wire 1 T MemtoReg_i $end
$var wire 5 Z" RDaddr_i [4:0] $end
$var wire 1 R RegWrite_i $end
$var wire 1 ! clk_i $end
$var wire 1 # start_i $end
$var reg 32 [" MemAddr_o [31:0] $end
$var reg 32 \" MemRead_Data_o [31:0] $end
$var reg 1 : MemtoReg_o $end
$var reg 5 ]" RDaddr_o [4:0] $end
$var reg 1 8 RegWrite_o $end
$upscope $end
$scope module Registers $end
$var wire 5 ^" RDaddr_i [4:0] $end
$var wire 32 _" RDdata_i [31:0] $end
$var wire 5 `" RS1addr_i [4:0] $end
$var wire 5 a" RS2addr_i [4:0] $end
$var wire 1 8 RegWrite_i $end
$var wire 1 ! clk_i $end
$var wire 32 b" RS2data_o [31:0] $end
$var wire 32 c" RS1data_o [31:0] $end
$upscope $end
$scope module ShiftLeft $end
$var wire 32 d" data_o [31:0] $end
$var wire 32 e" data_i [31:0] $end
$upscope $end
$scope module Sign_Extend $end
$var wire 32 f" data_i [31:0] $end
$var reg 32 g" data_o [31:0] $end
$upscope $end
$upscope $end
$upscope $end
$enddefinitions $end
#0
$dumpvars
b0 g"
b0 f"
b0 e"
b0 d"
b0 c"
b0 b"
b0 a"
b0 `"
b0 _"
b0 ^"
b0 ]"
b0 \"
b0 ["
b0 Z"
b0 Y"
b0 X"
b0 W"
b0 V"
b0 U"
b110000010011 T"
b0 S"
b0 R"
b0 Q"
bx P"
b0 O"
bx N"
b0 M"
b0 L"
b0 K"
b0 J"
b0 I"
b0 H"
b0 G"
b0 F"
b0 E"
b11 D"
b0 C"
b0 B"
b0 A"
b0 @"
b0 ?"
b0 >"
b0 ="
b100 <"
b100 ;"
b0 :"
b100 9"
b0 8"
b0 7"
b0 6"
b0 5"
b0 4"
b0 3"
b0 2"
b110000010011 1"
b0 0"
b0 /"
b0 ."
0-"
0,"
b0 +"
b0 *"
bx )"
bx ("
b0 '"
b0 &"
b0 %"
b0 $"
b0 #"
b0 ""
b0 !"
b0 ~
b0 }
b0 |
b0 {
b0 z
b0 y
b0 x
b0 w
b0 v
b0 u
b0 t
b0 s
b0 r
b0 q
b11 p
b0 o
b0 n
b100 m
b100 l
b0 k
b0 j
b0 i
b110 h
b0 g
b0 f
b0 e
b110 d
b0 c
b0 b
b110 a
b0 `
b11 _
0^
0]
0\
0[
0Z
0Y
b0 X
0W
0V
b0 U
0T
b0 S
0R
1Q
0P
b0 O
b0 N
b0 M
b0 L
b0 K
0J
0I
0H
0G
b0 F
bx E
b0 D
bx C
b0 B
0A
b0 @
b0 ?
b0 >
b0 =
b0 <
b0 ;
0:
b0 9
08
b0 7
b0 6
b100 5
b0 4
03
12
b0 1
b100 0
b0 /
b0 .
b0 -
b0 ,
b0 +
0*
b110000010011 )
b0 (
b11 '
b100000 &
b0 %
b0 $
0#
1"
1!
$end
#12
1#
0"
#25
0!
#50
b1010 a
b1010 d
b1010 h
1^
b0 _
b0 p
b0 D"
1Y
b11000 E"
b10011 o
b10000000000110100010011 )
b10000000000110100010011 1"
b10000000000110100010011 T"
b1000 5
b1000 ;"
b1000 <"
b11 K
b11 g
b11 L"
b0 C
b0 ("
b0 P"
b0 E
b0 )"
b0 N"
b110000010011 =
b110000010011 V"
b110000010011 f"
b1000 0
b1000 m
b1000 9"
b100 /
b100 n
b100 2"
b100 ="
b100 U"
b1 $
1!
#75
0!
#100
b110 a
b110 d
b110 h
b1000 ,
b1000 k
b1000 d"
b100 +
b100 I"
b100 e"
b100 g"
b100 /"
b100 G"
b11010 E"
b100 a"
b10000000000111000010011 )
b10000000000111000010011 1"
b10000000000111000010011 T"
b1100 5
b1100 ;"
b1100 <"
b1100 1
b1100 i
b1100 :"
b100 >
b100 j
b100 W"
b10000000000110100010011 =
b10000000000110100010011 V"
b10000000000110100010011 f"
1J
b0 K
b0 g
b0 L"
1A
b11000 F
b11000 0"
b11000 @"
b11000 M"
b1100 0
b1100 m
b1100 9"
b1000 /
b1000 n
b1000 2"
b1000 ="
b1000 U"
b10 $
1!
#125
0!
#150
b100 `
b100 e
b100 >"
b100 7
b100 b
b100 4"
b11100 E"
b11111111111100000000011110010011 )
b11111111111100000000011110010011 1"
b11111111111100000000011110010011 T"
b10000 5
b10000 ;"
b10000 <"
1R
b11000 S
b11000 '"
b11000 C"
b11000 Z"
b100 C
b100 ("
b100 P"
b11010 F
b11010 0"
b11010 @"
b11010 M"
b100 @
b100 5"
b100 R"
b10000 1
b10000 i
b10000 :"
b1000 >
b1000 j
b1000 W"
b10000000000111000010011 =
b10000000000111000010011 V"
b10000000000111000010011 f"
b10000 0
b10000 m
b10000 9"
b1100 /
b1100 n
b1100 2"
b1100 ="
b1100 U"
b11 $
1!
#175
0!
#200
0Q
b11111111111111111111111111111110 ,
b11111111111111111111111111111110 k
b11111111111111111111111111111110 d"
b111110 -
b111110 t
b111110 J"
b111110 b"
b11111111111111111111111111111111 +
b11111111111111111111111111111111 I"
b11111111111111111111111111111111 e"
b11111111111111111111111111111111 g"
b11111 /"
b11111 G"
b1111 E"
b1111111000 H"
b11111 a"
b11110011010000110010110011 )
b11110011010000110010110011 1"
b11110011010000110010110011 T"
b10100 5
b10100 ;"
b10100 <"
b1010 1
b1010 i
b1010 :"
b1100 >
b1100 j
b1100 W"
b11111111111100000000011110010011 =
b11111111111100000000011110010011 V"
b11111111111100000000011110010011 f"
b11100 F
b11100 0"
b11100 @"
b11100 M"
b11010 S
b11010 '"
b11010 C"
b11010 Z"
b100 X
b100 s
b100 x
b100 ~
b100 A"
b100 X"
18
b11000 9
b11000 &"
b11000 ]"
b11000 ^"
b10100 0
b10100 m
b10100 9"
b10000 /
b10000 n
b10000 2"
b10000 ="
b10000 U"
b100 $
1!
#225
0!
#250
b11111111111111111111111111111111 `
b11111111111111111111111111111111 e
b11111111111111111111111111111111 >"
b0 ,
b0 k
b0 d"
0^
b10 _
b10 p
b10 D"
b111000 -
b111000 t
b111000 J"
b111000 b"
b100 .
b100 u
b100 K"
b100 c"
b100 6
b100 w
b100 }
b100 6"
b100 _"
b11111111111111111111111111111111 7
b11111111111111111111111111111111 b
b11111111111111111111111111111111 4"
b111110 N
b111110 |
b111110 #"
b111110 3"
b111110 ?"
b0 +
b0 I"
b0 e"
b0 g"
b11100 /"
b11010 ."
b11100 G"
b11010 F"
b11001 E"
b1000 H"
b110011 o
b11100 a"
b11010 `"
b11111111111111010000110100010011 )
b11111111111111010000110100010011 1"
b11111111111111010000110100010011 T"
b11000 5
b11000 ;"
b11000 <"
b11010 9
b11010 &"
b11010 ]"
b11010 ^"
b100 <
b100 8"
b100 ["
b11100 S
b11100 '"
b11100 C"
b11100 Z"
b11111 C
b11111 ("
b11111 P"
b1111 F
b1111 0"
b1111 @"
b1111 M"
b1111111000 ?
b1111111000 f
b1111111000 S"
b11111111111111111111111111111111 @
b11111111111111111111111111111111 5"
b11111111111111111111111111111111 R"
b111110 B
b111110 ""
b111110 Q"
b10000 1
b10000 i
b10000 :"
b10000 >
b10000 j
b10000 W"
b11110011010000110010110011 =
b11110011010000110010110011 V"
b11110011010000110010110011 f"
b11000 0
b11000 m
b11000 9"
b10100 /
b10100 n
b10100 2"
b10100 ="
b10100 U"
b101 $
1!
#275
0!
#300
b10000 `
b10000 e
b10000 >"
b101 a
b101 d
b101 h
0Q
b11111111111111111111111111111110 ,
b11111111111111111111111111111110 k
b11111111111111111111111111111110 d"
1^
b0 _
b0 p
b0 D"
b111110 -
b111110 t
b111110 J"
b111110 b"
b11111111111111111111111111111111 +
b11111111111111111111111111111111 I"
b11111111111111111111111111111111 e"
b11111111111111111111111111111111 g"
b11111 /"
b11111 G"
b11010 E"
b1111111000 H"
b10011 o
b11111 a"
b100 7
b100 b
b100 4"
b100 O
b100 c
b100 v
b100 {
b100 N
b100 |
b100 #"
b100 3"
b100 ?"
b1 L
b1 !"
b1 %"
b1 +"
b11001010110110000011 )
b11001010110110000011 1"
b11001010110110000011 T"
b11100 5
b11100 ;"
b11100 <"
b10010 1
b10010 i
b10010 :"
b10100 >
b10100 j
b10100 W"
b11111111111111010000110100010011 =
b11111111111111010000110100010011 V"
b11111111111111010000110100010011 f"
0J
b10 K
b10 g
b10 L"
b11100 C
b11100 ("
b11100 P"
b11010 E
b11010 )"
b11010 N"
b11001 F
b11001 0"
b11001 @"
b11001 M"
b1000 ?
b1000 f
b1000 S"
b0 @
b0 5"
b0 R"
b111000 B
b111000 ""
b111000 Q"
b100 D
b100 z
b100 O"
b1111 S
b1111 '"
b1111 C"
b1111 Z"
b111110 U
b111110 r
b111110 B"
b11111111111111111111111111111111 X
b11111111111111111111111111111111 s
b11111111111111111111111111111111 x
b11111111111111111111111111111111 ~
b11111111111111111111111111111111 A"
b11111111111111111111111111111111 X"
b11100 9
b11100 &"
b11100 ]"
b11100 ^"
b11100 0
b11100 m
b11100 9"
b11000 /
b11000 n
b11000 2"
b11000 ="
b11000 U"
b110 $
1!
#325
0!
#350
b11 `
b11 e
b11 >"
b110 a
b110 d
b110 h
b111110 N
b111110 |
b111110 #"
b111110 3"
b111110 ?"
b0 ,
b0 k
b0 d"
1\
1Z
b0 -
b0 t
b0 J"
b0 b"
b11111111111111111111111111100111 .
b11111111111111111111111111100111 u
b11111111111111111111111111100111 K"
b11111111111111111111111111100111 c"
b11111111111111111111111111111111 6
b11111111111111111111111111111111 w
b11111111111111111111111111111111 }
b11111111111111111111111111111111 6"
b11111111111111111111111111111111 _"
b11111111111111111111111111111111 7
b11111111111111111111111111111111 b
b11111111111111111111111111111111 4"
b0 L
b0 !"
b0 %"
b0 +"
b0 +
b0 I"
b0 e"
b0 g"
b0 /"
b11001 ."
b0 G"
b11001 F"
b11011 E"
b10 H"
b11 o
b0 a"
b11001 `"
b1101111000000110000110011 )
b1101111000000110000110011 1"
b1101111000000110000110011 T"
b100000 5
b100000 ;"
b100000 <"
b1111 9
b1111 &"
b1111 ]"
b1111 ^"
b11111111111111111111111111111111 <
b11111111111111111111111111111111 8"
b11111111111111111111111111111111 ["
b11001 S
b11001 '"
b11001 C"
b11001 Z"
b100 U
b100 r
b100 B"
b10000 X
b10000 s
b10000 x
b10000 ~
b10000 A"
b10000 X"
1J
b0 K
b0 g
b0 L"
b11111 C
b11111 ("
b11111 P"
b11010 F
b11010 0"
b11010 @"
b11010 M"
b1111111000 ?
b1111111000 f
b1111111000 S"
b11111111111111111111111111111111 @
b11111111111111111111111111111111 5"
b11111111111111111111111111111111 R"
b111110 B
b111110 ""
b111110 Q"
b11000 1
b11000 i
b11000 :"
b11000 >
b11000 j
b11000 W"
b11001010110110000011 =
b11001010110110000011 V"
b11001010110110000011 f"
b100000 0
b100000 m
b100000 9"
b11100 /
b11100 n
b11100 2"
b11100 ="
b11100 U"
b111 $
1!
#375
0!
#400
0Y
13
1*
02
b10000 `
b10000 e
b10000 >"
b1000 a
b1000 d
b1000 h
0^
b10 _
b10 p
b10 D"
0\
0Z
b11111111111111111111111111100101 -
b11111111111111111111111111100101 t
b11111111111111111111111111100101 J"
b11111111111111111111111111100101 b"
b0 .
b0 u
b0 K"
b0 c"
b11011 /"
b11000 ."
b11011 G"
b11000 F"
b11000 E"
b0 H"
b110011 o
b11011 a"
b11000 `"
b0 7
b0 b
b0 4"
b10000 O
b10000 c
b10000 v
b10000 {
b0 N
b0 |
b0 #"
b0 3"
b0 ?"
b1 M
b1 y
b1 $"
b1 *"
b10000 6
b10000 w
b10000 }
b10000 6"
b10000 _"
b111111010000010001100011 )
b111111010000010001100011 1"
b111111010000010001100011 T"
b100100 5
b100100 ;"
b100100 <"
b11100 1
b11100 i
b11100 :"
b11100 >
b11100 j
b11100 W"
b1101111000000110000110011 =
b1101111000000110000110011 V"
b1101111000000110000110011 f"
1I
1G
b0 C
b0 ("
b0 P"
b11001 E
b11001 )"
b11001 N"
b11011 F
b11011 0"
b11011 @"
b11011 M"
b10 ?
b10 f
b10 S"
b0 @
b0 5"
b0 R"
b0 B
b0 ""
b0 Q"
b11111111111111111111111111100111 D
b11111111111111111111111111100111 z
b11111111111111111111111111100111 O"
b11010 S
b11010 '"
b11010 C"
b11010 Z"
b111110 U
b111110 r
b111110 B"
b11 X
b11 s
b11 x
b11 ~
b11 A"
b11 X"
b11001 9
b11001 &"
b11001 ]"
b11001 ^"
b10000 <
b10000 8"
b10000 ["
b100100 0
b100100 m
b100100 9"
b100000 /
b100000 n
b100000 2"
b100000 ="
b100000 U"
b1000 $
1!
#425
0!
#450
1Y
b10000 `
b10000 e
b10000 >"
03
0*
12
b11 a
b11 d
b11 h
b0 O
b0 c
b0 v
b0 {
b11 6
b11 w
b11 }
b11 6"
b11 _"
b11101 4
b11101 q
b11101 Y"
b10000 7
b10000 b
b10000 4"
1-"
b10 L
b10 !"
b10 %"
b10 +"
b0 M
b0 y
b0 $"
b0 *"
b10000 N
b10000 |
b10000 #"
b10000 3"
b10000 ?"
b11010 9
b11010 &"
b11010 ]"
b11010 ^"
b11 <
b11 8"
b11 ["
1W
1T
b11011 S
b11011 '"
b11011 C"
b11011 Z"
b0 U
b0 r
b0 B"
b10000 X
b10000 s
b10000 x
b10000 ~
b10000 A"
b10000 X"
0J
b10 K
b10 g
b10 L"
0I
0G
0A
b11011 C
b11011 ("
b11011 P"
b11000 E
b11000 )"
b11000 N"
b11000 F
b11000 0"
b11000 @"
b11000 M"
b0 ?
b0 f
b0 S"
b11111111111111111111111111100101 B
b11111111111111111111111111100101 ""
b11111111111111111111111111100101 Q"
b0 D
b0 z
b0 O"
b1001 $
b1 (
1!
#475
0!
#500
b11101 `
b11101 e
b11101 >"
b11101 7
b11101 b
b11101 4"
b1000 ,
b1000 k
b1000 d"
1]
b11 _
b11 p
b11 D"
0Y
b11 .
b11 u
b11 K"
b11 c"
b11111111111111111111111111111111 -
b11111111111111111111111111111111 t
b11111111111111111111111111111111 J"
b11111111111111111111111111111111 b"
b11101 N
b11101 |
b11101 #"
b11101 3"
b11101 ?"
b100 +
b100 I"
b100 e"
b100 g"
b1111 /"
b11010 ."
b1111 G"
b11010 F"
b1000 E"
b1100011 o
b1111 a"
b11010 `"
b0 4
b0 q
b0 Y"
0-"
b1 L
b1 !"
b1 %"
b1 +"
b11101 6
b11101 w
b11101 }
b11101 6"
b11101 _"
b11111110000000000000011011100011 )
b11111110000000000000011011100011 1"
b11111110000000000000011011100011 T"
b101000 5
b101000 ;"
b101000 <"
b101000 1
b101000 i
b101000 :"
b100000 >
b100000 j
b100000 W"
b111111010000010001100011 =
b111111010000010001100011 V"
b111111010000010001100011 f"
1A
0W
0T
0R
b11000 S
b11000 '"
b11000 C"
b11000 Z"
b10000 U
b10000 r
b10000 B"
1:
b11011 9
b11011 &"
b11011 ]"
b11011 ^"
b11101 ;
b11101 7"
b11101 \"
b10000 <
b10000 8"
b10000 ["
b101000 0
b101000 m
b101000 9"
b100100 /
b100100 n
b100100 2"
b100100 ="
b100100 U"
b1010 $
1!
#525
0!
#550
b0 `
b0 e
b0 >"
b1010 a
b1010 d
b1010 h
1P
b11111111111111111111111111111111 7
b11111111111111111111111111111111 b
b11111111111111111111111111111111 4"
1Q
b11111111111111111111111111111111 N
b11111111111111111111111111111111 |
b11111111111111111111111111111111 #"
b11111111111111111111111111111111 3"
b11111111111111111111111111111111 ?"
b11111111111111111111111111101100 ,
b11111111111111111111111111101100 k
b11111111111111111111111111101100 d"
b0 -
b0 t
b0 J"
b0 b"
b0 .
b0 u
b0 K"
b0 c"
b10000 6
b10000 w
b10000 }
b10000 6"
b10000 _"
b0 L
b0 !"
b0 %"
b0 +"
b11 O
b11 c
b11 v
b11 {
b11111111111111111111111111110110 +
b11111111111111111111111111110110 I"
b11111111111111111111111111110110 e"
b11111111111111111111111111110110 g"
b0 /"
b0 ."
b0 G"
b0 F"
b1101 E"
b1111111000 H"
b0 a"
b0 `"
b1100000000010111000100011 )
b1100000000010111000100011 1"
b1100000000010111000100011 T"
b10000 5
b10000 ;"
b10000 <"
0:
08
b11000 9
b11000 &"
b11000 ]"
b11000 ^"
b0 ;
b0 7"
b0 \"
1R
b11101 U
b11101 r
b11101 B"
b11101 X
b11101 s
b11101 x
b11101 ~
b11101 A"
b11101 X"
b11 K
b11 g
b11 L"
0A
b1111 C
b1111 ("
b1111 P"
b11010 E
b11010 )"
b11010 N"
b1000 F
b1000 0"
b1000 @"
b1000 M"
b100 @
b100 5"
b100 R"
b11111111111111111111111111111111 B
b11111111111111111111111111111111 ""
b11111111111111111111111111111111 Q"
b11 D
b11 z
b11 O"
b10000 1
b10000 i
b10000 :"
b100100 >
b100100 j
b100100 W"
b11111110000000000000011011100011 =
b11111110000000000000011011100011 V"
b11111110000000000000011011100011 f"
b101100 0
b101100 m
b101100 9"
b101000 /
b101000 n
b101000 2"
b101000 ="
b101000 U"
b1011 $
1!
#575
0!
#600
0P
b0 ,
b0 k
b0 d"
0]
b0 7
b0 b
b0 4"
b10100 5
b10100 ;"
b10100 <"
b0 +
b0 I"
b0 e"
b0 g"
b0 E"
b0 H"
b0 o
b0 O
b0 c
b0 v
b0 {
b0 N
b0 |
b0 #"
b0 3"
b0 ?"
b11101 6
b11101 w
b11101 }
b11101 6"
b11101 _"
b11110011010000110010110011 )
b11110011010000110010110011 1"
b11110011010000110010110011 T"
b0 1
b0 i
b0 :"
b0 >
b0 j
b0 W"
b0 =
b0 V"
b0 f"
b0 C
b0 ("
b0 P"
b0 E
b0 )"
b0 N"
b1101 F
b1101 0"
b1101 @"
b1101 M"
b1111111000 ?
b1111111000 f
b1111111000 S"
b11111111111111111111111111110110 @
b11111111111111111111111111110110 5"
b11111111111111111111111111110110 R"
b0 B
b0 ""
b0 Q"
b0 D
b0 z
b0 O"
0R
b1000 S
b1000 '"
b1000 C"
b1000 Z"
b11111111111111111111111111111111 U
b11111111111111111111111111111111 r
b11111111111111111111111111111111 B"
b0 X
b0 s
b0 x
b0 ~
b0 A"
b0 X"
18
b11101 <
b11101 8"
b11101 ["
b10100 0
b10100 m
b10100 9"
b10000 /
b10000 n
b10000 2"
b10000 ="
b10000 U"
b1100 $
b1 %
1!
#625
0!
#650
0Q
b10 _
b10 p
b10 D"
1Y
b100 -
b100 t
b100 J"
b100 b"
b11 .
b11 u
b11 K"
b11 c"
b0 6
b0 w
b0 }
b0 6"
b0 _"
b11100 /"
b11010 ."
b11100 G"
b11010 F"
b11001 E"
b1000 H"
b110011 o
b11100 a"
b11010 `"
b11111111111111010000110100010011 )
b11111111111111010000110100010011 1"
b11111111111111010000110100010011 T"
b11000 5
b11000 ;"
b11000 <"
08
b1000 9
b1000 &"
b1000 ]"
b1000 ^"
b0 <
b0 8"
b0 ["
b1101 S
b1101 '"
b1101 C"
b1101 Z"
b0 U
b0 r
b0 B"
b0 F
b0 0"
b0 @"
b0 M"
b0 ?
b0 f
b0 S"
b0 @
b0 5"
b0 R"
b10000 1
b10000 i
b10000 :"
b10000 >
b10000 j
b10000 W"
b11110011010000110010110011 =
b11110011010000110010110011 V"
b11110011010000110010110011 f"
b11000 0
b11000 m
b11000 9"
b10100 /
b10100 n
b10100 2"
b10100 ="
b10100 U"
b1101 $
1!
#675
0!
